Firmware/vfat3_testing_firmware/.Xil/Vivado-14644-Shinsekai/hw_ila_data_1/zip_work/waveform.vcd
$date
        2017-May-09 11:29:12
$end
$version
        Vivado v2016.3 (64-bit)
$end
$timescale
        1ps
$end
$scope module dut $end
$var reg 1 " slaves/slave_vfat3/fifo_out_w_en $end
$var reg 1 # slaves/slave_vfat3/fifo_in_w_en $end
$var reg 1 $ slaves/slave_vfat3/fifo_out_r_en $end
$var reg 1 % slaves/slave_vfat3/fifo_in_r_en $end
$var reg 1 & slaves/slave_vfat3/fifo_out_valid $end
$var reg 1 ' slaves/slave_vfat3/fifo_in_valid $end
$var reg 32 ( slaves/slave_vfat3/fifo_out_data_in [31:0] $end
$var reg 32 H slaves/slave_vfat3/fifo_out_data_out [31:0] $end
$var reg 32 h slaves/slave_vfat3/fifo_in_data_in [31:0] $end
$var reg 32 *" slaves/slave_vfat3/fifo_in_data_out [31:0] $end
$var reg 1 J" slaves/slave_vfat3/fifo_out_empty $end
$var reg 1 K" slaves/slave_vfat3/fifo_in_empty $end
$var reg 1 L" slaves/slave_vfat3/fifo_out_full $end
$var reg 1 M" slaves/slave_vfat3/fifo_in_full $end
$var reg 8 N" slaves/slave_vfat3/ser_d_in [7:0] $end
$var reg 1 V" slaves/slave_vfat3/reset $end
$var reg 1 W" slaves/slave_vfat3/rst40 $end
$var reg 1 X" slaves/slave_vfat3/reset_fifo $end
$var reg 8 Y" slaves/slave_vfat3/data_bus_in [7:0] $end
$var reg 8 a" slaves/slave_vfat3/d_sync [7:0] $end
$var reg 1 i" _TRIGGER $end
$var reg 1 j" _WINDOW $end
$var reg 1 k" _GAP $end
$upscope $end
$enddefinitions $end
#0
$dumpvars
0"
0#
0$
1%
0&
0'
b11111010101101010010111101111110 (
b0 H
b0 h
b0 *"
0J"
0K"
1L"
0M"
b11111111 N"
0V"
0W"
0X"
b1111110 Y"
b10000001 a"
1i"
1j"
0k"
$end
#1
0%
1'
b11111010101101010011000010000001 (
b10000 *"
b0 N"
b10000001 Y"
b1111110 a"
#2
0'
b11111010101101010011000101111110 (
b11111111 N"
b1111110 Y"
b10000001 a"
#3
b11111010101101010011001010000001 (
b0 N"
b10000001 Y"
b1111110 a"
#4
b11111010101101010011001101111110 (
b11111111 N"
b1111110 Y"
b10000001 a"
#5
b11111010101101010011010010000001 (
b0 N"
b10000001 Y"
b1111110 a"
#6
b11111010101101010011010101111110 (
b11111111 N"
b1111110 Y"
b10000001 a"
#7
b11111010101101010011011010000001 (
b0 N"
b10000001 Y"
b1111110 a"
#8
b11111010101101010011011101111110 (
b11111111 N"
b1111110 Y"
b10000001 a"
#9
b11111010101101010011100010000001 (
b0 N"
b10000001 Y"
b1111110 a"
#10
b11111010101101010011100101111110 (
b11111111 N"
b1111110 Y"
b10000001 a"
#11
b11111010101101010011101010000001 (
b0 N"
b10000001 Y"
b1111110 a"
#12
b11111010101101010011101101111110 (
b11111111 N"
b1111110 Y"
b10000001 a"
#13
b11111010101101010011110010000001 (
b0 N"
b10000001 Y"
b1111110 a"
#14
b11111010101101010011110101111110 (
b11111111 N"
b1111110 Y"
b10000001 a"
#15
b11111010101101010011111010000001 (
b0 N"
b10000001 Y"
b1111110 a"
#16
b11111010101101010011111101111110 (
b11111111 N"
b1111110 Y"
b10000001 a"
#17
1%
b11111010101101010100000010000001 (
b0 N"
b10000001 Y"
b1111110 a"
#18
0%
1'
b11111010101101010100000101111110 (
b11111111 N"
b1111110 Y"
b10000001 a"
#19
0'
b11111010101101010100001010000001 (
b10111 N"
b10000001 Y"
b1111110 a"
#20
b11111010101101010100001101111110 (
b0 N"
b1111110 Y"
b10000001 a"
#21
b11111010101101010100010010000001 (
b11111111 N"
b10000001 Y"
b1111110 a"
#22
b11111010101101010100010101111110 (
b0 N"
b1111110 Y"
b10000001 a"
#23
b11111010101101010100011010000001 (
b11111111 N"
b10000001 Y"
b1111110 a"
#24
b11111010101101010100011101111110 (
b0 N"
b1111110 Y"
b10000001 a"
#25
b11111010101101010100100010000001 (
b11111111 N"
b10000001 Y"
b1111110 a"
#26
b11111010101101010100100101111110 (
b0 N"
b1111110 Y"
b10000001 a"
#27
b11111010101101010100101010000001 (
b11111111 N"
b10000001 Y"
b1111110 a"
#28
b11111010101101010100101101111110 (
b0 N"
b1111110 Y"
b10000001 a"
#29
b11111010101101010100110010000001 (
b11111111 N"
b10000001 Y"
b1111110 a"
#30
b11111010101101010100110101111110 (
b0 N"
b1111110 Y"
b10000001 a"
#31
b11111010101101010100111010000001 (
b11111111 N"
b10000001 Y"
b1111110 a"
#32
b11111010101101010100111101111110 (
b0 N"
b1111110 Y"
b10000001 a"
#33
b11111010101101010101000010000001 (
b11111111 N"
b10000001 Y"
b1111110 a"
#34
1%
b11111010101101010101000101111110 (
b0 N"
b1111110 Y"
b10000001 a"
#35
0%
1'
b11111010101101010101001010000001 (
1K"
b11111111 N"
b10000001 Y"
b1111110 a"
#36
0'
b11111010101101010101001101111110 (
b10111 N"
b1111110 Y"
b10000001 a"
#37
b11111010101101010101010010000001 (
b0 N"
b10000001 Y"
b1111110 a"
#38
b11111010101101010101010101111110 (
b11111111 N"
b1111110 Y"
b10000001 a"
#39
b11111010101101010101011010000001 (
b0 N"
b10000001 Y"
b1111110 a"
#40
b11111010101101010101011101111110 (
b11111111 N"
b1111110 Y"
b10000001 a"
#41
b11111010101101010101100010000001 (
b0 N"
b10000001 Y"
b1111110 a"
#42
b11111010101101010101100101111110 (
b11111111 N"
b1111110 Y"
b10000001 a"
#43
b11111010101101010101101010000001 (
b0 N"
b10000001 Y"
b1111110 a"
#44
b11111010101101010101101101111110 (
b11111111 N"
b1111110 Y"
b10000001 a"
#45
b11111010101101010101110010000001 (
b0 N"
b10000001 Y"
b1111110 a"
#46
b11111010101101010101110101111110 (
b11111111 N"
b1111110 Y"
b10000001 a"
#47
b11111010101101010101111010000001 (
b0 N"
b10000001 Y"
b1111110 a"
#48
b11111010101101010101111101111110 (
b11111111 N"
b1111110 Y"
b10000001 a"
#49
b11111010101101010110000010000001 (
b0 N"
b10000001 Y"
b1111110 a"
#50
b11111010101101010110000101111110 (
b11111111 N"
b1111110 Y"
b10000001 a"
#51
b11111010101101010110001010000001 (
b0 N"
b10000001 Y"
b1111110 a"
#52
b11111010101101010110001101111110 (
b11111111 N"
b1111110 Y"
b10000001 a"
#53
b11111010101101010110010010000001 (
b10111 N"
b10000001 Y"
b1111110 a"
#54
b11111010101101010110010101111110 (
b0 N"
b1111110 Y"
b10000001 a"
#55
b11111010101101010110011010000001 (
b11111111 N"
b10000001 Y"
b1111110 a"
#56
b11111010101101010110011101111110 (
b0 N"
b1111110 Y"
b10000001 a"
#57
b11111010101101010110100010000001 (
b11111111 N"
b10000001 Y"
b1111110 a"
#58
b11111010101101010110100101111110 (
b0 N"
b1111110 Y"
b10000001 a"
#59
b11111010101101010110101010000001 (
b11111111 N"
b10000001 Y"
b1111110 a"
#60
b11111010101101010110101101111110 (
b0 N"
b1111110 Y"
b10000001 a"
#61
b11111010101101010110110010000001 (
b11111111 N"
b10000001 Y"
b1111110 a"
#62
b11111010101101010110110101111110 (
b0 N"
b1111110 Y"
b10000001 a"
#63
b11111010101101010110111010000001 (
b11111111 N"
b10000001 Y"
b1111110 a"
#64
b11111010101101010110111101111110 (
b0 N"
b1111110 Y"
b10000001 a"
#65
b11111010101101010111000010000001 (
b11111111 N"
b10000001 Y"
b1111110 a"
#66
b11111010101101010111000101111110 (
b0 N"
b1111110 Y"
b10000001 a"
#67
b11111010101101010111001010000001 (
b11111111 N"
b10000001 Y"
b1111110 a"
#68
b11111010101101010111001101111110 (
b0 N"
b1111110 Y"
b10000001 a"
#69
b11111010101101010111010010000001 (
b11111111 N"
b10000001 Y"
b1111110 a"
#70
b11111010101101010111010101111110 (
b0 N"
b1111110 Y"
b10000001 a"
#71
b11111010101101010111011010000001 (
b11111111 N"
b10000001 Y"
b1111110 a"
#72
b11111010101101010111011101111110 (
b0 N"
b1111110 Y"
b10000001 a"
#73
b11111010101101010111100010000001 (
b11111111 N"
b10000001 Y"
b1111110 a"
#74
b11111010101101010111100101111110 (
b0 N"
b1111110 Y"
b10000001 a"
#75
b11111010101101010111101010000001 (
b11111111 N"
b10000001 Y"
b1111110 a"
#76
b11111010101101010111101101111110 (
b0 N"
b1111110 Y"
b10000001 a"
#77
b11111010101101010111110010000001 (
b11111111 N"
b10000001 Y"
b1111110 a"
#78
b11111010101101010111110101111110 (
b0 N"
b1111110 Y"
b10000001 a"
#79
b11111010101101010111111010000001 (
b11111111 N"
b10000001 Y"
b1111110 a"
#80
b11111010101101010111111101111110 (
b0 N"
b1111110 Y"
b10000001 a"
#81
b11111010101101011000000010000001 (
b11111111 N"
b10000001 Y"
b1111110 a"
#82
b11111010101101011000000101111110 (
b0 N"
b1111110 Y"
b10000001 a"
#83
b11111010101101011000001010000001 (
b11111111 N"
b10000001 Y"
b1111110 a"
#84
b11111010101101011000001101111110 (
b0 N"
b1111110 Y"
b10000001 a"
#85
b11111010101101011000010010000001 (
b11111111 N"
b10000001 Y"
b1111110 a"
#86
b11111010101101011000010101111110 (
b0 N"
b1111110 Y"
b10000001 a"
#87
b11111010101101011000011010000001 (
b11111111 N"
b10000001 Y"
b1111110 a"
#88
b11111010101101011000011101111110 (
b0 N"
b1111110 Y"
b10000001 a"
#89
b11111010101101011000100010000001 (
b11111111 N"
b10000001 Y"
b1111110 a"
#90
b11111010101101011000100101111110 (
b0 N"
b1111110 Y"
b10000001 a"
#91
b11111010101101011000101010000001 (
b11111111 N"
b10000001 Y"
b1111110 a"
#92
b11111010101101011000101101111110 (
b0 N"
b1111110 Y"
b10000001 a"
#93
b11111010101101011000110010000001 (
b11111111 N"
b10000001 Y"
b1111110 a"
#94
b11111010101101011000110101111110 (
b0 N"
b1111110 Y"
b10000001 a"
#95
b11111010101101011000111010000001 (
b11111111 N"
b10000001 Y"
b1111110 a"
#96
b11111010101101011000111101111110 (
b0 N"
b1111110 Y"
b10000001 a"
#97
b11111010101101011001000010000001 (
b11111111 N"
b10000001 Y"
b1111110 a"
#98
b11111010101101011001000101111110 (
b0 N"
b1111110 Y"
b10000001 a"
#99
b11111010101101011001001010000001 (
b11111111 N"
b10000001 Y"
b1111110 a"
#100
b11111010101101011001001101111110 (
b0 N"
b1111110 Y"
b10000001 a"
#101
b11111010101101011001010010000001 (
b11111111 N"
b10000001 Y"
b1111110 a"
#102
b11111010101101011001010101111110 (
b0 N"
b1111110 Y"
b10000001 a"
#103
b11111010101101011001011010000001 (
b11111111 N"
b10000001 Y"
b1111110 a"
#104
b11111010101101011001011101111110 (
b0 N"
b1111110 Y"
b10000001 a"
#105
b11111010101101011001100010000001 (
b11111111 N"
b10000001 Y"
b1111110 a"
#106
b11111010101101011001100101111110 (
b0 N"
b1111110 Y"
b10000001 a"
#107
b11111010101101011001101010000001 (
b11111111 N"
b10000001 Y"
b1111110 a"
#108
b11111010101101011001101101111110 (
b0 N"
b1111110 Y"
b10000001 a"
#109
b11111010101101011001110010000001 (
b11111111 N"
b10000001 Y"
b1111110 a"
#110
b11111010101101011001110101111110 (
b0 N"
b1111110 Y"
b10000001 a"
#111
b11111010101101011001111010000001 (
b11111111 N"
b10000001 Y"
b1111110 a"
#112
b11111010101101011001111101111110 (
b0 N"
b1111110 Y"
b10000001 a"
#113
b11111010101101011010000010000001 (
b11111111 N"
b10000001 Y"
b1111110 a"
#114
b11111010101101011010000101111110 (
b0 N"
b1111110 Y"
b10000001 a"
#115
b11111010101101011010001010000001 (
b11111111 N"
b10000001 Y"
b1111110 a"
#116
b11111010101101011010001101111110 (
b0 N"
b1111110 Y"
b10000001 a"
#117
b11111010101101011010010010000001 (
b11111111 N"
b10000001 Y"
b1111110 a"
#118
b11111010101101011010010101111110 (
b0 N"
b1111110 Y"
b10000001 a"
#119
b11111010101101011010011010000001 (
b11111111 N"
b10000001 Y"
b1111110 a"
#120
b11111010101101011010011101111110 (
b0 N"
b1111110 Y"
b10000001 a"
#121
b11111010101101011010100010000001 (
b11111111 N"
b10000001 Y"
b1111110 a"
#122
b11111010101101011010100101111110 (
b0 N"
b1111110 Y"
b10000001 a"
#123
b11111010101101011010101010000001 (
b11111111 N"
b10000001 Y"
b1111110 a"
#124
b11111010101101011010101101111110 (
b0 N"
b1111110 Y"
b10000001 a"
#125
b11111010101101011010110010000001 (
b11111111 N"
b10000001 Y"
b1111110 a"
#126
b11111010101101011010110101111110 (
b0 N"
b1111110 Y"
b10000001 a"
#127
b11111010101101011010111010000001 (
b11111111 N"
b10000001 Y"
b1111110 a"
#128
b11111010101101011010111101111110 (
b0 N"
b1111110 Y"
b10000001 a"
#129
b11111010101101011011000010000001 (
b11111111 N"
b10000001 Y"
b1111110 a"
#130
b11111010101101011011000101111110 (
b0 N"
b1111110 Y"
b10000001 a"
#131
b11111010101101011011001010000001 (
b11111111 N"
b10000001 Y"
b1111110 a"
#132
b11111010101101011011001101111110 (
b0 N"
b1111110 Y"
b10000001 a"
#133
b11111010101101011011010010000001 (
b11111111 N"
b10000001 Y"
b1111110 a"
#134
b11111010101101011011010101111110 (
b0 N"
b1111110 Y"
b10000001 a"
#135
b11111010101101011011011010000001 (
b11111111 N"
b10000001 Y"
b1111110 a"
#136
b11111010101101011011011101111110 (
b0 N"
b1111110 Y"
b10000001 a"
#137
b11111010101101011011100010000001 (
b11111111 N"
b10000001 Y"
b1111110 a"
#138
b11111010101101011011100101111110 (
b0 N"
b1111110 Y"
b10000001 a"
#139
b11111010101101011011101010000001 (
b11111111 N"
b10000001 Y"
b1111110 a"
#140
b11111010101101011011101101111110 (
b0 N"
b1111110 Y"
b10000001 a"
#141
b11111010101101011011110010000001 (
b11111111 N"
b10000001 Y"
b1111110 a"
#142
b11111010101101011011110101111110 (
b0 N"
b1111110 Y"
b10000001 a"
#143
b11111010101101011011111010000001 (
b11111111 N"
b10000001 Y"
b1111110 a"
#144
b11111010101101011011111101111110 (
b0 N"
b1111110 Y"
b10000001 a"
#145
b11111010101101011100000010000001 (
b11111111 N"
b10000001 Y"
b1111110 a"
#146
b11111010101101011100000101111110 (
b0 N"
b1111110 Y"
b10000001 a"
#147
b11111010101101011100001010000001 (
b11111111 N"
b10000001 Y"
b1111110 a"
#148
b11111010101101011100001101111110 (
b0 N"
b1111110 Y"
b10000001 a"
#149
b11111010101101011100010010000001 (
b11111111 N"
b10000001 Y"
b1111110 a"
#150
b11111010101101011100010101111110 (
b0 N"
b1111110 Y"
b10000001 a"
#151
b11111010101101011100011010000001 (
b11111111 N"
b10000001 Y"
b1111110 a"
#152
b11111010101101011100011101111110 (
b0 N"
b1111110 Y"
b10000001 a"
#153
b11111010101101011100100010000001 (
b11111111 N"
b10000001 Y"
b1111110 a"
#154
b11111010101101011100100101111110 (
b0 N"
b1111110 Y"
b10000001 a"
#155
b11111010101101011100101010000001 (
b11111111 N"
b10000001 Y"
b1111110 a"
#156
b11111010101101011100101101111110 (
b0 N"
b1111110 Y"
b10000001 a"
#157
b11111010101101011100110010000001 (
b11111111 N"
b10000001 Y"
b1111110 a"
#158
b11111010101101011100110101111110 (
b0 N"
b1111110 Y"
b10000001 a"
#159
b11111010101101011100111010000001 (
b11111111 N"
b10000001 Y"
b1111110 a"
#160
b11111010101101011100111101111110 (
b0 N"
b1111110 Y"
b10000001 a"
#161
b11111010101101011101000010000001 (
b11111111 N"
b10000001 Y"
b1111110 a"
#162
b11111010101101011101000101111110 (
b0 N"
b1111110 Y"
b10000001 a"
#163
b11111010101101011101001010000001 (
b11111111 N"
b10000001 Y"
b1111110 a"
#164
b11111010101101011101001101111110 (
b0 N"
b1111110 Y"
b10000001 a"
#165
b11111010101101011101010010000001 (
b11111111 N"
b10000001 Y"
b1111110 a"
#166
b11111010101101011101010101111110 (
b0 N"
b1111110 Y"
b10000001 a"
#167
b11111010101101011101011010000001 (
b11111111 N"
b10000001 Y"
b1111110 a"
#168
b11111010101101011101011101111110 (
b0 N"
b1111110 Y"
b10000001 a"
#169
b11111010101101011101100010000001 (
b11111111 N"
b10000001 Y"
b1111110 a"
#170
b11111010101101011101100101111110 (
b0 N"
b1111110 Y"
b10000001 a"
#171
b11111010101101011101101010000001 (
b11111111 N"
b10000001 Y"
b1111110 a"
#172
b11111010101101011101101101111110 (
b0 N"
b1111110 Y"
b10000001 a"
#173
b11111010101101011101110010000001 (
b11111111 N"
b10000001 Y"
b1111110 a"
#174
b11111010101101011101110101111110 (
b0 N"
b1111110 Y"
b10000001 a"
#175
b11111010101101011101111010000001 (
b11111111 N"
b10000001 Y"
b1111110 a"
#176
b11111010101101011101111101111110 (
b0 N"
b1111110 Y"
b10000001 a"
#177
b11111010101101011110000010000001 (
b11111111 N"
b10000001 Y"
b1111110 a"
#178
b11111010101101011110000101111110 (
b0 N"
b1111110 Y"
b10000001 a"
#179
b11111010101101011110001010000001 (
b11111111 N"
b10000001 Y"
b1111110 a"
#180
b11111010101101011110001101111110 (
b0 N"
b1111110 Y"
b10000001 a"
#181
b11111010101101011110010010000001 (
b11111111 N"
b10000001 Y"
b1111110 a"
#182
b11111010101101011110010101111110 (
b0 N"
b1111110 Y"
b10000001 a"
#183
b11111010101101011110011010000001 (
b11111111 N"
b10000001 Y"
b1111110 a"
#184
b11111010101101011110011101111110 (
b0 N"
b1111110 Y"
b10000001 a"
#185
b11111010101101011110100010000001 (
b11111111 N"
b10000001 Y"
b1111110 a"
#186
b11111010101101011110100101111110 (
b0 N"
b1111110 Y"
b10000001 a"
#187
b11111010101101011110101010000001 (
b11111111 N"
b10000001 Y"
b1111110 a"
#188
b11111010101101011110101101111110 (
b0 N"
b1111110 Y"
b10000001 a"
#189
b11111010101101011110110010000001 (
b11111111 N"
b10000001 Y"
b1111110 a"
#190
b11111010101101011110110101111110 (
b0 N"
b1111110 Y"
b10000001 a"
#191
b11111010101101011110111010000001 (
b11111111 N"
b10000001 Y"
b1111110 a"
#192
b11111010101101011110111101111110 (
b0 N"
b1111110 Y"
b10000001 a"
#193
b11111010101101011111000010000001 (
b11111111 N"
b10000001 Y"
b1111110 a"
#194
b11111010101101011111000101111110 (
b0 N"
b1111110 Y"
b10000001 a"
#195
b11111010101101011111001010000001 (
b11111111 N"
b10000001 Y"
b1111110 a"
#196
b11111010101101011111001101111110 (
b0 N"
b1111110 Y"
b10000001 a"
#197
b11111010101101011111010010000001 (
b11111111 N"
b10000001 Y"
b1111110 a"
#198
b11111010101101011111010101111110 (
b0 N"
b1111110 Y"
b10000001 a"
#199
b11111010101101011111011010000001 (
b11111111 N"
b10000001 Y"
b1111110 a"
#200
b11111010101101011111011101111110 (
b0 N"
b1111110 Y"
b10000001 a"
#201
b11111010101101011111100010000001 (
b11111111 N"
b10000001 Y"
b1111110 a"
#202
b11111010101101011111100101111110 (
b0 N"
b1111110 Y"
b10000001 a"
#203
b11111010101101011111101010000001 (
b11111111 N"
b10000001 Y"
b1111110 a"
#204
b11111010101101011111101101111110 (
b0 N"
b1111110 Y"
b10000001 a"
#205
b11111010101101011111110010000001 (
b11111111 N"
b10000001 Y"
b1111110 a"
#206
b11111010101101011111110101111110 (
b0 N"
b1111110 Y"
b10000001 a"
#207
b11111010101101011111111010000001 (
b11111111 N"
b10000001 Y"
b1111110 a"
#208
b11111010101101011111111101111110 (
b0 N"
b1111110 Y"
b10000001 a"
#209
b11111010101101100000000010000001 (
b11111111 N"
b10000001 Y"
b1111110 a"
#210
b11111010101101100000000101111110 (
b0 N"
b1111110 Y"
b10000001 a"
#211
b11111010101101100000001010000001 (
b11111111 N"
b10000001 Y"
b1111110 a"
#212
b11111010101101100000001101111110 (
b0 N"
b1111110 Y"
b10000001 a"
#213
b11111010101101100000010010000001 (
b11111111 N"
b10000001 Y"
b1111110 a"
#214
b11111010101101100000010101111110 (
b0 N"
b1111110 Y"
b10000001 a"
#215
b11111010101101100000011010000001 (
b11111111 N"
b10000001 Y"
b1111110 a"
#216
b11111010101101100000011101111110 (
b0 N"
b1111110 Y"
b10000001 a"
#217
b11111010101101100000100010000001 (
b11111111 N"
b10000001 Y"
b1111110 a"
#218
b11111010101101100000100101111110 (
b0 N"
b1111110 Y"
b10000001 a"
#219
b11111010101101100000101010000001 (
b11111111 N"
b10000001 Y"
b1111110 a"
#220
b11111010101101100000101101111110 (
b0 N"
b1111110 Y"
b10000001 a"
#221
b11111010101101100000110010000001 (
b11111111 N"
b10000001 Y"
b1111110 a"
#222
b11111010101101100000110101111110 (
b0 N"
b1111110 Y"
b10000001 a"
#223
b11111010101101100000111010000001 (
b11111111 N"
b10000001 Y"
b1111110 a"
#224
b11111010101101100000111101111110 (
b0 N"
b1111110 Y"
b10000001 a"
#225
b11111010101101100001000010000001 (
b11111111 N"
b10000001 Y"
b1111110 a"
#226
b11111010101101100001000101111110 (
b0 N"
b1111110 Y"
b10000001 a"
#227
b11111010101101100001001010000001 (
b11111111 N"
b10000001 Y"
b1111110 a"
#228
b11111010101101100001001101111110 (
b0 N"
b1111110 Y"
b10000001 a"
#229
b11111010101101100001010010000001 (
b11111111 N"
b10000001 Y"
b1111110 a"
#230
b11111010101101100001010101111110 (
b0 N"
b1111110 Y"
b10000001 a"
#231
b11111010101101100001011010000001 (
b11111111 N"
b10000001 Y"
b1111110 a"
#232
b11111010101101100001011101111110 (
b0 N"
b1111110 Y"
b10000001 a"
#233
b11111010101101100001100010000001 (
b11111111 N"
b10000001 Y"
b1111110 a"
#234
b11111010101101100001100101111110 (
b0 N"
b1111110 Y"
b10000001 a"
#235
b11111010101101100001101010000001 (
b11111111 N"
b10000001 Y"
b1111110 a"
#236
b11111010101101100001101101111110 (
b0 N"
b1111110 Y"
b10000001 a"
#237
b11111010101101100001110010000001 (
b11111111 N"
b10000001 Y"
b1111110 a"
#238
b11111010101101100001110101111110 (
b0 N"
b1111110 Y"
b10000001 a"
#239
b11111010101101100001111010000001 (
b11111111 N"
b10000001 Y"
b1111110 a"
#240
b11111010101101100001111101111110 (
b0 N"
b1111110 Y"
b10000001 a"
#241
b11111010101101100010000010000001 (
b11111111 N"
b10000001 Y"
b1111110 a"
#242
b11111010101101100010000101111110 (
b0 N"
b1111110 Y"
b10000001 a"
#243
b11111010101101100010001010000001 (
b11111111 N"
b10000001 Y"
b1111110 a"
#244
b11111010101101100010001101111110 (
b0 N"
b1111110 Y"
b10000001 a"
#245
b11111010101101100010010010000001 (
b11111111 N"
b10000001 Y"
b1111110 a"
#246
b11111010101101100010010101111110 (
b0 N"
b1111110 Y"
b10000001 a"
#247
b11111010101101100010011010000001 (
b11111111 N"
b10000001 Y"
b1111110 a"
#248
b11111010101101100010011101111110 (
b0 N"
b1111110 Y"
b10000001 a"
#249
b11111010101101100010100010000001 (
b11111111 N"
b10000001 Y"
b1111110 a"
#250
b11111010101101100010100101111110 (
b0 N"
b1111110 Y"
b10000001 a"
#251
b11111010101101100010101010000001 (
b11111111 N"
b10000001 Y"
b1111110 a"
#252
b11111010101101100010101101111110 (
b0 N"
b1111110 Y"
b10000001 a"
#253
b11111010101101100010110010000001 (
b11111111 N"
b10000001 Y"
b1111110 a"
#254
b11111010101101100010110101111110 (
b0 N"
b1111110 Y"
b10000001 a"
#255
b11111010101101100010111010000001 (
b11111111 N"
b10000001 Y"
b1111110 a"
#256
b11111010101101100010111101111110 (
b0 N"
b1111110 Y"
b10000001 a"
#257
b11111010101101100011000010000001 (
b11111111 N"
b10000001 Y"
b1111110 a"
#258
b11111010101101100011000101111110 (
b0 N"
b1111110 Y"
b10000001 a"
#259
b11111010101101100011001010000001 (
b11111111 N"
b10000001 Y"
b1111110 a"
#260
b11111010101101100011001101111110 (
b0 N"
b1111110 Y"
b10000001 a"
#261
b11111010101101100011010010000001 (
b11111111 N"
b10000001 Y"
b1111110 a"
#262
b11111010101101100011010101111110 (
b0 N"
b1111110 Y"
b10000001 a"
#263
b11111010101101100011011010000001 (
b11111111 N"
b10000001 Y"
b1111110 a"
#264
b11111010101101100011011101111110 (
b0 N"
b1111110 Y"
b10000001 a"
#265
b11111010101101100011100010000001 (
b11111111 N"
b10000001 Y"
b1111110 a"
#266
b11111010101101100011100101111110 (
b0 N"
b1111110 Y"
b10000001 a"
#267
b11111010101101100011101010000001 (
b11111111 N"
b10000001 Y"
b1111110 a"
#268
b11111010101101100011101101111110 (
b0 N"
b1111110 Y"
b10000001 a"
#269
b11111010101101100011110010000001 (
b11111111 N"
b10000001 Y"
b1111110 a"
#270
b11111010101101100011110101111110 (
b0 N"
b1111110 Y"
b10000001 a"
#271
b11111010101101100011111010000001 (
b11111111 N"
b10000001 Y"
b1111110 a"
#272
b11111010101101100011111101111110 (
b0 N"
b1111110 Y"
b10000001 a"
#273
b11111010101101100100000010000001 (
b11111111 N"
b10000001 Y"
b1111110 a"
#274
b11111010101101100100000101111110 (
b0 N"
b1111110 Y"
b10000001 a"
#275
b11111010101101100100001010000001 (
b11111111 N"
b10000001 Y"
b1111110 a"
#276
b11111010101101100100001101111110 (
b0 N"
b1111110 Y"
b10000001 a"
#277
b11111010101101100100010010000001 (
b11111111 N"
b10000001 Y"
b1111110 a"
#278
b11111010101101100100010101111110 (
b0 N"
b1111110 Y"
b10000001 a"
#279
b11111010101101100100011010000001 (
b11111111 N"
b10000001 Y"
b1111110 a"
#280
b11111010101101100100011101111110 (
b0 N"
b1111110 Y"
b10000001 a"
#281
b11111010101101100100100010000001 (
b11111111 N"
b10000001 Y"
b1111110 a"
#282
b11111010101101100100100101111110 (
b0 N"
b1111110 Y"
b10000001 a"
#283
b11111010101101100100101010000001 (
b11111111 N"
b10000001 Y"
b1111110 a"
#284
b11111010101101100100101101111110 (
b0 N"
b1111110 Y"
b10000001 a"
#285
b11111010101101100100110010000001 (
b11111111 N"
b10000001 Y"
b1111110 a"
#286
b11111010101101100100110101111110 (
b0 N"
b1111110 Y"
b10000001 a"
#287
b11111010101101100100111010000001 (
b11111111 N"
b10000001 Y"
b1111110 a"
#288
b11111010101101100100111101111110 (
b0 N"
b1111110 Y"
b10000001 a"
#289
b11111010101101100101000010000001 (
b11111111 N"
b10000001 Y"
b1111110 a"
#290
b11111010101101100101000101111110 (
b0 N"
b1111110 Y"
b10000001 a"
#291
b11111010101101100101001010000001 (
b11111111 N"
b10000001 Y"
b1111110 a"
#292
b11111010101101100101001101111110 (
b0 N"
b1111110 Y"
b10000001 a"
#293
b11111010101101100101010010000001 (
b11111111 N"
b10000001 Y"
b1111110 a"
#294
b11111010101101100101010101111110 (
b0 N"
b1111110 Y"
b10000001 a"
#295
b11111010101101100101011010000001 (
b11111111 N"
b10000001 Y"
b1111110 a"
#296
b11111010101101100101011101111110 (
b0 N"
b1111110 Y"
b10000001 a"
#297
b11111010101101100101100010000001 (
b11111111 N"
b10000001 Y"
b1111110 a"
#298
b11111010101101100101100101111110 (
b0 N"
b1111110 Y"
b10000001 a"
#299
b11111010101101100101101010000001 (
b11111111 N"
b10000001 Y"
b1111110 a"
#300
b11111010101101100101101101111110 (
b0 N"
b1111110 Y"
b10000001 a"
#301
b11111010101101100101110010000001 (
b11111111 N"
b10000001 Y"
b1111110 a"
#302
b11111010101101100101110101111110 (
b0 N"
b1111110 Y"
b10000001 a"
#303
b11111010101101100101111010000001 (
b11111111 N"
b10000001 Y"
b1111110 a"
#304
b11111010101101100101111101111110 (
b0 N"
b1111110 Y"
b10000001 a"
#305
b11111010101101100110000010000001 (
b11111111 N"
b10000001 Y"
b1111110 a"
#306
b11111010101101100110000101111110 (
b0 N"
b1111110 Y"
b10000001 a"
#307
b11111010101101100110001010000001 (
b11111111 N"
b10000001 Y"
b1111110 a"
#308
b11111010101101100110001101111110 (
b0 N"
b1111110 Y"
b10000001 a"
#309
b11111010101101100110010010000001 (
b11111111 N"
b10000001 Y"
b1111110 a"
#310
b11111010101101100110010101111110 (
b0 N"
b1111110 Y"
b10000001 a"
#311
b11111010101101100110011010000001 (
b11111111 N"
b10000001 Y"
b1111110 a"
#312
b11111010101101100110011101111110 (
b0 N"
b1111110 Y"
b10000001 a"
#313
b11111010101101100110100010000001 (
b11111111 N"
b10000001 Y"
b1111110 a"
#314
b11111010101101100110100101111110 (
b0 N"
b1111110 Y"
b10000001 a"
#315
b11111010101101100110101010000001 (
b11111111 N"
b10000001 Y"
b1111110 a"
#316
b11111010101101100110101101111110 (
b0 N"
b1111110 Y"
b10000001 a"
#317
b11111010101101100110110010000001 (
b11111111 N"
b10000001 Y"
b1111110 a"
#318
b11111010101101100110110101111110 (
b0 N"
b1111110 Y"
b10000001 a"
#319
b11111010101101100110111010000001 (
b11111111 N"
b10000001 Y"
b1111110 a"
#320
b11111010101101100110111101111110 (
b0 N"
b1111110 Y"
b10000001 a"
#321
b11111010101101100111000010000001 (
b11111111 N"
b10000001 Y"
b1111110 a"
#322
b11111010101101100111000101111110 (
b0 N"
b1111110 Y"
b10000001 a"
#323
b11111010101101100111001010000001 (
b11111111 N"
b10000001 Y"
b1111110 a"
#324
b11111010101101100111001101111110 (
b0 N"
b1111110 Y"
b10000001 a"
#325
b11111010101101100111010010000001 (
b11111111 N"
b10000001 Y"
b1111110 a"
#326
b11111010101101100111010101111110 (
b0 N"
b1111110 Y"
b10000001 a"
#327
b11111010101101100111011010000001 (
b11111111 N"
b10000001 Y"
b1111110 a"
#328
b11111010101101100111011101111110 (
b0 N"
b1111110 Y"
b10000001 a"
#329
b11111010101101100111100010000001 (
b11111111 N"
b10000001 Y"
b1111110 a"
#330
b11111010101101100111100101111110 (
b0 N"
b1111110 Y"
b10000001 a"
#331
b11111010101101100111101010000001 (
b11111111 N"
b10000001 Y"
b1111110 a"
#332
b11111010101101100111101101111110 (
b0 N"
b1111110 Y"
b10000001 a"
