Firmware/vfat3_testing_firmware/.Xil/Vivado-420-Shinsekai/hw_ila_data_1/zip_work/waveform.vcd
$date
        2017-May-03 14:05:54
$end
$version
        Vivado v2016.3 (64-bit)
$end
$timescale
        1ps
$end
$scope module dut $end
$var reg 1 " slaves/slave_vfat3/fifo_out_w_en $end
$var reg 1 # slaves/slave_vfat3/fifo_in_w_en $end
$var reg 1 $ slaves/slave_vfat3/fifo_out_r_en $end
$var reg 1 % slaves/slave_vfat3/fifo_in_r_en $end
$var reg 1 & slaves/slave_vfat3/fifo_out_valid $end
$var reg 1 ' slaves/slave_vfat3/fifo_in_valid $end
$var reg 32 ( slaves/slave_vfat3/fifo_out_data_in [31:0] $end
$var reg 32 H slaves/slave_vfat3/fifo_out_data_out [31:0] $end
$var reg 32 h slaves/slave_vfat3/fifo_in_data_in [31:0] $end
$var reg 32 *" slaves/slave_vfat3/fifo_in_data_out [31:0] $end
$var reg 1 J" slaves/slave_vfat3/fifo_out_empty $end
$var reg 1 K" slaves/slave_vfat3/fifo_in_empty $end
$var reg 1 L" slaves/slave_vfat3/fifo_out_full $end
$var reg 1 M" slaves/slave_vfat3/fifo_in_full $end
$var reg 8 N" slaves/slave_vfat3/ser_d_in [7:0] $end
$var reg 1 V" slaves/slave_vfat3/reset $end
$var reg 1 W" slaves/slave_vfat3/rst40 $end
$var reg 1 X" slaves/slave_vfat3/reset_fifo $end
$var reg 8 Y" slaves/slave_vfat3/data_bus_in [7:0] $end
$var reg 8 a" slaves/slave_vfat3/d_sync [7:0] $end
$var reg 1 i" _TRIGGER $end
$var reg 1 j" _WINDOW $end
$var reg 1 k" _GAP $end
$upscope $end
$enddefinitions $end
#0
$dumpvars
0"
0#
0$
0%
0&
0'
b100110100111100010101111111111 (
b100001100010011011011111000 H
b0 h
b11100 *"
0J"
1K"
1L"
0M"
b11111111 N"
0V"
0W"
0X"
b11000011 Y"
b0 a"
1i"
1j"
0k"
$end
#1
b100110100111100010110000000000 (
b0 N"
b11111111 Y"
b11000011 a"
#2
1"
b100110100111100010110111000011 (
b11111111 N"
b0 Y"
b11111111 a"
#3
0"
b100110100111100010111011111111 (
b0 N"
b11111111 Y"
b0 a"
#4
b100110100111100010111100000000 (
b11111111 N"
b0 Y"
b11111111 a"
#5
b100110100111100011000011111111 (
b0 N"
b11111111 Y"
b0 a"
#6
b100110100111100011000100000000 (
b11111111 N"
b0 Y"
b11111111 a"
#7
b100110100111100011001011111111 (
b0 N"
b11111111 Y"
b0 a"
#8
b100110100111100011001100000000 (
b11111111 N"
b0 Y"
b11111111 a"
#9
b100110100111100011010011111111 (
b0 N"
b11111111 Y"
b0 a"
#10
b100110100111100011010100000000 (
b11111111 N"
b0 Y"
b11111111 a"
#11
b100110100111100011011011111111 (
b0 N"
b11111111 Y"
b0 a"
#12
b100110100111100011011100000000 (
b11111111 N"
b0 Y"
b11111111 a"
#13
b100110100111100011100011111111 (
b0 N"
b11111111 Y"
b0 a"
#14
b100110100111100011100100000000 (
b11111111 N"
b0 Y"
b11111111 a"
#15
b100110100111100011101011111111 (
b0 N"
b11111111 Y"
b0 a"
#16
b100110100111100011101100000000 (
b11111111 N"
b0 Y"
b11111111 a"
#17
b100110100111100011110011111111 (
b0 N"
b11111111 Y"
b0 a"
#18
b100110100111100011110100000000 (
b11111111 N"
b0 Y"
b11111111 a"
#19
b100110100111100011111011111111 (
b0 N"
b11111111 Y"
b0 a"
#20
b100110100111100011111100000000 (
b11111111 N"
b0 Y"
b11111111 a"
#21
b100110100111100100000011111111 (
b0 N"
b11111111 Y"
b0 a"
#22
b100110100111100100000100000000 (
b11111111 N"
b0 Y"
b11111111 a"
#23
b100110100111100100001011111111 (
b0 N"
b11111111 Y"
b0 a"
#24
b100110100111100100001100000000 (
b11111111 N"
b0 Y"
b11111111 a"
#25
b100110100111100100010011111111 (
b0 N"
b11111111 Y"
b0 a"
#26
b100110100111100100010100000000 (
b11111111 N"
b0 Y"
b11111111 a"
#27
b100110100111100100011011111111 (
b0 N"
b11111111 Y"
b0 a"
#28
b100110100111100100011100000000 (
b11111111 N"
b0 Y"
b11111111 a"
#29
b100110100111100100100011111111 (
b0 N"
b11111111 Y"
b0 a"
#30
b100110100111100100100100000000 (
b11111111 N"
b0 Y"
b11111111 a"
#31
b100110100111100100101011111111 (
b0 N"
b11111111 Y"
b0 a"
#32
b100110100111100100101100000000 (
b11111111 N"
b0 Y"
b11111111 a"
#33
b100110100111100100110011111111 (
b0 N"
b11111111 Y"
b0 a"
#34
b100110100111100100110100000000 (
b11111111 N"
b0 Y"
b11111111 a"
#35
b100110100111100100111011111111 (
b0 N"
b11111111 Y"
b0 a"
#36
b100110100111100100111100000000 (
b11111111 N"
b0 Y"
b11111111 a"
#37
b100110100111100101000011111111 (
b0 N"
b11111111 Y"
b0 a"
#38
b100110100111100101000100000000 (
b11111111 N"
b0 Y"
b11111111 a"
#39
b100110100111100101001011111111 (
b0 N"
b11111111 Y"
b0 a"
#40
b100110100111100101001100000000 (
b11111111 N"
b0 Y"
b11111111 a"
#41
b100110100111100101010011111111 (
b0 N"
b11111111 Y"
b0 a"
#42
b100110100111100101010100000000 (
b11111111 N"
b0 Y"
b11111111 a"
#43
b100110100111100101011011111111 (
b0 N"
b11111111 Y"
b0 a"
#44
b100110100111100101011100000000 (
b11111111 N"
b0 Y"
b11111111 a"
#45
b100110100111100101100011111111 (
b0 N"
b11111111 Y"
b0 a"
#46
b100110100111100101100100000000 (
b11111111 N"
b0 Y"
b11111111 a"
#47
b100110100111100101101011111111 (
b0 N"
b11111111 Y"
b0 a"
#48
b100110100111100101101100000000 (
b11111111 N"
b0 Y"
b11111111 a"
#49
b100110100111100101110011111111 (
b0 N"
b11111111 Y"
b0 a"
#50
b100110100111100101110100000000 (
b11111111 N"
b0 Y"
b11111111 a"
#51
b100110100111100101111011111111 (
b0 N"
b11111111 Y"
b0 a"
#52
b100110100111100101111100000000 (
b11111111 N"
b0 Y"
b11111111 a"
#53
b100110100111100110000011111111 (
b0 N"
b11111111 Y"
b0 a"
#54
b100110100111100110000100000000 (
b11111111 N"
b0 Y"
b11111111 a"
#55
b100110100111100110001011111111 (
b0 N"
b11111111 Y"
b0 a"
#56
b100110100111100110001100000000 (
b11111111 N"
b0 Y"
b11111111 a"
#57
b100110100111100110010011111111 (
b0 N"
b11111111 Y"
b0 a"
#58
b100110100111100110010100000000 (
b11111111 N"
b0 Y"
b11111111 a"
#59
b100110100111100110011011111111 (
b0 N"
b11111111 Y"
b0 a"
#60
b100110100111100110011100000000 (
b11111111 N"
b0 Y"
b11111111 a"
#61
b100110100111100110100011111111 (
b0 N"
b11111111 Y"
b0 a"
#62
b100110100111100110100100000000 (
b11111111 N"
b0 Y"
b11111111 a"
#63
b100110100111100110101011111111 (
b0 N"
b11111111 Y"
b0 a"
#64
b100110100111100110101100000000 (
b11111111 N"
b0 Y"
b11111111 a"
#65
b100110100111100110110011111111 (
b0 N"
b11111111 Y"
b0 a"
#66
b100110100111100110110100000000 (
b11111111 N"
b0 Y"
b11111111 a"
#67
b100110100111100110111011111111 (
b0 N"
b11111111 Y"
b0 a"
#68
b100110100111100110111100000000 (
b11111111 N"
b0 Y"
b11111111 a"
#69
b100110100111100111000011111111 (
b0 N"
b11111111 Y"
b0 a"
#70
b100110100111100111000100000000 (
b11111111 N"
b0 Y"
b11111111 a"
#71
b100110100111100111001011111111 (
b0 N"
b11111111 Y"
b0 a"
#72
b100110100111100111001100000000 (
b11111111 N"
b0 Y"
b11111111 a"
#73
b100110100111100111010011111111 (
b0 N"
b11111111 Y"
b0 a"
#74
b100110100111100111010100000000 (
b11111111 N"
b0 Y"
b11111111 a"
#75
b100110100111100111011011111111 (
b0 N"
b11111111 Y"
b0 a"
#76
b100110100111100111011100000000 (
b11111111 N"
b0 Y"
b11111111 a"
#77
b100110100111100111100011111111 (
b0 N"
b11111111 Y"
b0 a"
#78
b100110100111100111100100000000 (
b11111111 N"
b0 Y"
b11111111 a"
#79
b100110100111100111101011111111 (
b0 N"
b11111111 Y"
b0 a"
#80
b100110100111100111101100000000 (
b11111111 N"
b0 Y"
b11111111 a"
#81
b100110100111100111110011111111 (
b0 N"
b11111111 Y"
b0 a"
#82
b100110100111100111110100000000 (
b11111111 N"
b0 Y"
b11111111 a"
#83
b100110100111100111111011111111 (
b0 N"
b11111111 Y"
b0 a"
#84
b100110100111100111111100000000 (
b11111111 N"
b0 Y"
b11111111 a"
#85
b100110100111101000000011111111 (
b0 N"
b11111111 Y"
b0 a"
#86
b100110100111101000000100000000 (
b11111111 N"
b0 Y"
b11111111 a"
#87
b100110100111101000001011111111 (
b0 N"
b11111111 Y"
b0 a"
#88
b100110100111101000001100000000 (
b11111111 N"
b0 Y"
b11111111 a"
#89
b100110100111101000010011111111 (
b0 N"
b11111111 Y"
b0 a"
#90
b100110100111101000010100000000 (
b11111111 N"
b0 Y"
b11111111 a"
#91
b100110100111101000011011111111 (
b0 N"
b11111111 Y"
b0 a"
#92
b100110100111101000011100000000 (
b11111111 N"
b0 Y"
b11111111 a"
#93
b100110100111101000100011111111 (
b0 N"
b11111111 Y"
b0 a"
#94
b100110100111101000100100000000 (
b11111111 N"
b0 Y"
b11111111 a"
#95
b100110100111101000101011111111 (
b0 N"
b11111111 Y"
b0 a"
#96
b100110100111101000101100000000 (
b11111111 N"
b0 Y"
b11111111 a"
#97
b100110100111101000110011111111 (
b0 N"
b11111111 Y"
b0 a"
#98
b100110100111101000110100000000 (
b11111111 N"
b0 Y"
b11111111 a"
#99
b100110100111101000111011111111 (
b0 N"
b11111111 Y"
b0 a"
#100
b100110100111101000111100000000 (
b11111111 N"
b0 Y"
b11111111 a"
#101
b100110100111101001000011111111 (
b0 N"
b11111111 Y"
b0 a"
#102
b100110100111101001000100000000 (
b11111111 N"
b0 Y"
b11111111 a"
#103
b100110100111101001001011111111 (
b0 N"
b11111111 Y"
b0 a"
#104
b100110100111101001001100000000 (
b11111111 N"
b0 Y"
b11111111 a"
#105
b100110100111101001010011111111 (
b0 N"
b11111111 Y"
b0 a"
#106
b100110100111101001010100000000 (
b11111111 N"
b0 Y"
b11111111 a"
#107
b100110100111101001011011111111 (
b0 N"
b11111111 Y"
b0 a"
#108
b100110100111101001011100000000 (
b11111111 N"
b0 Y"
b11111111 a"
#109
b100110100111101001100011111111 (
b0 N"
b11111111 Y"
b0 a"
#110
b100110100111101001100100000000 (
b11111111 N"
b0 Y"
b11111111 a"
#111
b100110100111101001101011111111 (
b0 N"
b11111111 Y"
b0 a"
#112
b100110100111101001101100000000 (
b11111111 N"
b0 Y"
b11111111 a"
#113
b100110100111101001110011111111 (
b0 N"
b11111111 Y"
b0 a"
#114
b100110100111101001110100000000 (
b11111111 N"
b0 Y"
b11111111 a"
#115
b100110100111101001111011111111 (
b0 N"
b11111111 Y"
b0 a"
#116
b100110100111101001111100000000 (
b11111111 N"
b0 Y"
b11111111 a"
#117
b100110100111101010000011111111 (
b0 N"
b11111111 Y"
b0 a"
#118
b100110100111101010000100000000 (
b11111111 N"
b0 Y"
b11111111 a"
#119
b100110100111101010001011111111 (
b0 N"
b11111111 Y"
b0 a"
#120
b100110100111101010001100000000 (
b11111111 N"
b0 Y"
b11111111 a"
#121
b100110100111101010010011111111 (
b0 N"
b11111111 Y"
b0 a"
#122
b100110100111101010010100000000 (
b11111111 N"
b0 Y"
b11111111 a"
#123
b100110100111101010011011111111 (
b0 N"
b11111111 Y"
b0 a"
#124
b100110100111101010011100000000 (
b11111111 N"
b0 Y"
b11111111 a"
#125
b100110100111101010100011111111 (
b0 N"
b11111111 Y"
b0 a"
#126
b100110100111101010100100000000 (
b11111111 N"
b0 Y"
b11111111 a"
#127
b100110100111101010101011111111 (
b0 N"
b11111111 Y"
b0 a"
#128
b100110100111101010101100000000 (
b11111111 N"
b0 Y"
b11111111 a"
#129
b100110100111101010110011111111 (
b0 N"
b11111111 Y"
b0 a"
#130
b100110100111101010110100000000 (
b11111111 N"
b0 Y"
b11111111 a"
#131
b100110100111101010111011111111 (
b0 N"
b11111111 Y"
b0 a"
#132
b100110100111101010111100000000 (
b11111111 N"
b0 Y"
b11111111 a"
#133
b100110100111101011000011111111 (
b0 N"
b11111111 Y"
b0 a"
#134
b100110100111101011000100000000 (
b11111111 N"
b0 Y"
b11111111 a"
#135
b100110100111101011001011111111 (
b0 N"
b11111111 Y"
b0 a"
#136
b100110100111101011001100000000 (
b11111111 N"
b0 Y"
b11111111 a"
#137
b100110100111101011010011111111 (
b0 N"
b11111111 Y"
b0 a"
#138
b100110100111101011010100000000 (
b11111111 N"
b0 Y"
b11111111 a"
#139
b100110100111101011011011111111 (
b0 N"
b11111111 Y"
b0 a"
#140
b100110100111101011011100000000 (
b11111111 N"
b0 Y"
b11111111 a"
#141
b100110100111101011100011111111 (
b0 N"
b11111111 Y"
b0 a"
#142
b100110100111101011100100000000 (
b11111111 N"
b0 Y"
b11111111 a"
#143
b100110100111101011101011111111 (
b0 N"
b11111111 Y"
b0 a"
#144
b100110100111101011101100000000 (
b11111111 N"
b0 Y"
b11111111 a"
#145
b100110100111101011110011111111 (
b0 N"
b11111111 Y"
b0 a"
#146
b100110100111101011110100000000 (
b11111111 N"
b0 Y"
b11111111 a"
#147
b100110100111101011111011111111 (
b0 N"
b11111111 Y"
b0 a"
#148
b100110100111101011111100000000 (
b11111111 N"
b0 Y"
b11111111 a"
#149
b100110100111101100000011111111 (
b0 N"
b11111111 Y"
b0 a"
#150
b100110100111101100000100000000 (
b11111111 N"
b0 Y"
b11111111 a"
#151
b100110100111101100001011111111 (
b0 N"
b11111111 Y"
b0 a"
#152
b100110100111101100001100000000 (
b11111111 N"
b0 Y"
b11111111 a"
#153
b100110100111101100010011111111 (
b0 N"
b11111111 Y"
b0 a"
#154
b100110100111101100010100000000 (
b11111111 N"
b0 Y"
b11111111 a"
#155
b100110100111101100011011111111 (
b0 N"
b11111111 Y"
b0 a"
#156
b100110100111101100011100000000 (
b11111111 N"
b0 Y"
b11111111 a"
#157
b100110100111101100100011111111 (
b0 N"
b11111111 Y"
b0 a"
#158
b100110100111101100100100000000 (
b11111111 N"
b0 Y"
b11111111 a"
#159
b100110100111101100101011111111 (
b0 N"
b11111111 Y"
b0 a"
#160
b100110100111101100101100000000 (
b11111111 N"
b0 Y"
b11111111 a"
#161
b100110100111101100110011111111 (
b0 N"
b11111111 Y"
b0 a"
#162
b100110100111101100110100000000 (
b11111111 N"
b0 Y"
b11111111 a"
#163
b100110100111101100111011111111 (
b0 N"
b11111111 Y"
b0 a"
#164
b100110100111101100111100000000 (
b11111111 N"
b0 Y"
b11111111 a"
#165
b100110100111101101000011111111 (
b0 N"
b11111111 Y"
b0 a"
#166
b100110100111101101000100000000 (
b11111111 N"
b0 Y"
b11111111 a"
#167
b100110100111101101001011111111 (
b0 N"
b11111111 Y"
b0 a"
#168
b100110100111101101001100000000 (
b11111111 N"
b0 Y"
b11111111 a"
#169
b100110100111101101010011111111 (
b0 N"
b11111111 Y"
b0 a"
#170
b100110100111101101010100000000 (
b11111111 N"
b0 Y"
b11111111 a"
#171
b100110100111101101011011111111 (
b0 N"
b11111111 Y"
b0 a"
#172
b100110100111101101011100000000 (
b11111111 N"
b0 Y"
b11111111 a"
#173
b100110100111101101100011111111 (
b0 N"
b11111111 Y"
b0 a"
#174
b100110100111101101100100000000 (
b11111111 N"
b0 Y"
b11111111 a"
#175
b100110100111101101101011111111 (
b0 N"
b11111111 Y"
b0 a"
#176
b100110100111101101101100000000 (
b11111111 N"
b0 Y"
b11111111 a"
#177
b100110100111101101110011111111 (
b0 N"
b11111111 Y"
b0 a"
#178
b100110100111101101110100000000 (
b11111111 N"
b0 Y"
b11111111 a"
#179
b100110100111101101111011111111 (
b0 N"
b11111111 Y"
b0 a"
#180
b100110100111101101111100000000 (
b11111111 N"
b0 Y"
b11111111 a"
#181
b100110100111101110000011111111 (
b0 N"
b11111111 Y"
b0 a"
#182
b100110100111101110000100000000 (
b11111111 N"
b0 Y"
b11111111 a"
#183
b100110100111101110001011111111 (
b0 N"
b11111111 Y"
b0 a"
#184
b100110100111101110001100000000 (
b11111111 N"
b0 Y"
b11111111 a"
#185
b100110100111101110010011111111 (
b0 N"
b11111111 Y"
b0 a"
#186
b100110100111101110010100000000 (
b11111111 N"
b0 Y"
b11111111 a"
#187
b100110100111101110011011111111 (
b0 N"
b11111111 Y"
b0 a"
#188
b100110100111101110011100000000 (
b11111111 N"
b0 Y"
b11111111 a"
#189
b100110100111101110100011111111 (
b0 N"
b11111111 Y"
b0 a"
#190
b100110100111101110100100000000 (
b11111111 N"
b0 Y"
b11111111 a"
#191
b100110100111101110101011111111 (
b0 N"
b11111111 Y"
b0 a"
#192
b100110100111101110101100000000 (
b11111111 N"
b0 Y"
b11111111 a"
#193
b100110100111101110110011111111 (
b0 N"
b11111111 Y"
b0 a"
#194
b100110100111101110110100000000 (
b11111111 N"
b0 Y"
b11111111 a"
#195
b100110100111101110111011111111 (
b0 N"
b11111111 Y"
b0 a"
#196
b100110100111101110111100000000 (
b11111111 N"
b0 Y"
b11111111 a"
#197
b100110100111101111000011111111 (
b0 N"
b11111111 Y"
b0 a"
#198
b100110100111101111000100000000 (
b11111111 N"
b0 Y"
b11111111 a"
#199
b100110100111101111001011111111 (
b0 N"
b11111111 Y"
b0 a"
#200
b100110100111101111001100000000 (
b11111111 N"
b0 Y"
b11111111 a"
#201
b100110100111101111010011111111 (
b0 N"
b11111111 Y"
b0 a"
#202
b100110100111101111010100000000 (
b11111111 N"
b0 Y"
b11111111 a"
#203
b100110100111101111011011111111 (
b0 N"
b11111111 Y"
b0 a"
#204
b100110100111101111011100000000 (
b11111111 N"
b0 Y"
b11111111 a"
#205
b100110100111101111100011111111 (
b0 N"
b11111111 Y"
b0 a"
#206
b100110100111101111100100000000 (
b11111111 N"
b0 Y"
b11111111 a"
#207
b100110100111101111101011111111 (
b0 N"
b11111111 Y"
b0 a"
#208
b100110100111101111101100000000 (
b11111111 N"
b0 Y"
b11111111 a"
#209
b100110100111101111110011111111 (
b0 N"
b11111111 Y"
b0 a"
#210
b100110100111101111110100000000 (
b11111111 N"
b0 Y"
b11111111 a"
#211
b100110100111101111111011111111 (
b0 N"
b11111111 Y"
b0 a"
#212
b100110100111101111111100000000 (
b11111111 N"
b0 Y"
b11111111 a"
#213
b100110100111110000000011111111 (
b0 N"
b11111111 Y"
b0 a"
#214
b100110100111110000000100000000 (
b11111111 N"
b0 Y"
b11111111 a"
#215
b100110100111110000001011111111 (
b0 N"
b11111111 Y"
b0 a"
#216
b100110100111110000001100000000 (
b11111111 N"
b0 Y"
b11111111 a"
#217
b100110100111110000010011111111 (
b0 N"
b11111111 Y"
b0 a"
#218
b100110100111110000010100000000 (
b11111111 N"
b0 Y"
b11111111 a"
#219
b100110100111110000011011111111 (
b0 N"
b11111111 Y"
b0 a"
#220
b100110100111110000011100000000 (
b11111111 N"
b0 Y"
b11111111 a"
#221
b100110100111110000100011111111 (
b0 N"
b11111111 Y"
b0 a"
#222
b100110100111110000100100000000 (
b11111111 N"
b0 Y"
b11111111 a"
#223
b100110100111110000101011111111 (
b0 N"
b11111111 Y"
b0 a"
#224
b100110100111110000101100000000 (
b11111111 N"
b0 Y"
b11111111 a"
#225
b100110100111110000110011111111 (
b0 N"
b11111111 Y"
b0 a"
#226
b100110100111110000110100000000 (
b11111111 N"
b0 Y"
b11111111 a"
#227
b100110100111110000111011111111 (
b0 N"
b11111111 Y"
b0 a"
#228
b100110100111110000111100000000 (
b11111111 N"
b0 Y"
b11111111 a"
#229
b100110100111110001000011111111 (
b0 N"
b11111111 Y"
b0 a"
#230
b100110100111110001000100000000 (
b11111111 N"
b0 Y"
b11111111 a"
#231
b100110100111110001001011111111 (
b0 N"
b11111111 Y"
b0 a"
#232
b100110100111110001001100000000 (
b11111111 N"
b0 Y"
b11111111 a"
#233
b100110100111110001010011111111 (
b0 N"
b11111111 Y"
b0 a"
#234
b100110100111110001010100000000 (
b11111111 N"
b0 Y"
b11111111 a"
#235
b100110100111110001011011111111 (
b0 N"
b11111111 Y"
b0 a"
#236
b100110100111110001011100000000 (
b11111111 N"
b0 Y"
b11111111 a"
#237
b100110100111110001100011111111 (
b0 N"
b11111111 Y"
b0 a"
#238
b100110100111110001100100000000 (
b11111111 N"
b0 Y"
b11111111 a"
#239
b100110100111110001101011111111 (
b0 N"
b11111111 Y"
b0 a"
#240
b100110100111110001101100000000 (
b11111111 N"
b0 Y"
b11111111 a"
#241
b100110100111110001110011111111 (
b0 N"
b11111111 Y"
b0 a"
#242
b100110100111110001110100000000 (
b11111111 N"
b0 Y"
b11111111 a"
#243
b100110100111110001111011111111 (
b0 N"
b11111111 Y"
b0 a"
#244
b100110100111110001111100000000 (
b11111111 N"
b0 Y"
b11111111 a"
#245
b100110100111110010000011111111 (
b0 N"
b11111111 Y"
b0 a"
#246
b100110100111110010000100000000 (
b11111111 N"
b0 Y"
b11111111 a"
#247
b100110100111110010001011111111 (
b0 N"
b11111111 Y"
b0 a"
#248
b100110100111110010001100000000 (
b11111111 N"
b0 Y"
b11111111 a"
#249
b100110100111110010010011111111 (
b0 N"
b11111111 Y"
b0 a"
#250
b100110100111110010010100000000 (
b11111111 N"
b0 Y"
b11111111 a"
#251
b100110100111110010011011111111 (
b0 N"
b11111111 Y"
b0 a"
#252
b100110100111110010011100000000 (
b11111111 N"
b0 Y"
b11111111 a"
#253
b100110100111110010100011111111 (
b0 N"
b11111111 Y"
b0 a"
#254
b100110100111110010100100000000 (
b11111111 N"
b0 Y"
b11111111 a"
#255
b100110100111110010101011111111 (
b0 N"
b11111111 Y"
b0 a"
#256
b100110100111110010101100000000 (
b11111111 N"
b0 Y"
b11111111 a"
#257
b100110100111110010110011111111 (
b0 N"
b11111111 Y"
b0 a"
#258
b100110100111110010110100000000 (
b11111111 N"
b0 Y"
b11111111 a"
#259
b100110100111110010111011111111 (
b0 N"
b11111111 Y"
b0 a"
#260
b100110100111110010111100000000 (
b11111111 N"
b0 Y"
b11111111 a"
#261
b100110100111110011000011111111 (
b0 N"
b11111111 Y"
b0 a"
#262
b100110100111110011000100000000 (
b11111111 N"
b0 Y"
b11111111 a"
#263
b100110100111110011001011111111 (
b0 N"
b11111111 Y"
b0 a"
#264
b100110100111110011001100000000 (
b11111111 N"
b0 Y"
b11111111 a"
#265
b100110100111110011010011111111 (
b0 N"
b11111111 Y"
b0 a"
#266
b100110100111110011010100000000 (
b11111111 N"
b0 Y"
b11111111 a"
#267
b100110100111110011011011111111 (
b0 N"
b11111111 Y"
b0 a"
#268
b100110100111110011011100000000 (
b11111111 N"
b0 Y"
b11111111 a"
#269
b100110100111110011100011111111 (
b0 N"
b11111111 Y"
b0 a"
#270
b100110100111110011100100000000 (
b11111111 N"
b0 Y"
b11111111 a"
#271
b100110100111110011101011111111 (
b0 N"
b11111111 Y"
b0 a"
#272
b100110100111110011101100000000 (
b11111111 N"
b0 Y"
b11111111 a"
#273
b100110100111110011110011111111 (
b0 N"
b11111111 Y"
b0 a"
#274
b100110100111110011110100000000 (
b11111111 N"
b0 Y"
b11111111 a"
#275
b100110100111110011111011111111 (
b0 N"
b11111111 Y"
b0 a"
#276
b100110100111110011111100000000 (
b11111111 N"
b0 Y"
b11111111 a"
#277
b100110100111110100000011111111 (
b0 N"
b11111111 Y"
b0 a"
#278
b100110100111110100000100000000 (
b11111111 N"
b0 Y"
b11111111 a"
#279
b100110100111110100001011111111 (
b0 N"
b11111111 Y"
b0 a"
#280
b100110100111110100001100000000 (
b11111111 N"
b0 Y"
b11111111 a"
#281
b100110100111110100010011111111 (
b0 N"
b11111111 Y"
b0 a"
#282
b100110100111110100010100000000 (
b11111111 N"
b0 Y"
b11111111 a"
#283
b100110100111110100011011111111 (
b0 N"
b11111111 Y"
b0 a"
#284
b100110100111110100011100000000 (
b11111111 N"
b0 Y"
b11111111 a"
#285
b100110100111110100100011111111 (
b0 N"
b11111111 Y"
b0 a"
#286
b100110100111110100100100000000 (
b11111111 N"
b0 Y"
b11111111 a"
#287
b100110100111110100101011111111 (
b0 N"
b11111111 Y"
b0 a"
#288
b100110100111110100101100000000 (
b11111111 N"
b0 Y"
b11111111 a"
#289
b100110100111110100110011111111 (
b0 N"
b11111111 Y"
b0 a"
#290
b100110100111110100110100000000 (
b11111111 N"
b0 Y"
b11111111 a"
#291
b100110100111110100111011111111 (
b0 N"
b11111111 Y"
b0 a"
#292
b100110100111110100111100000000 (
b11111111 N"
b0 Y"
b11111111 a"
#293
b100110100111110101000011111111 (
b0 N"
b11111111 Y"
b0 a"
#294
b100110100111110101000100000000 (
b11111111 N"
b0 Y"
b11111111 a"
#295
b100110100111110101001011111111 (
b0 N"
b11111111 Y"
b0 a"
#296
b100110100111110101001100000000 (
b11111111 N"
b0 Y"
b11111111 a"
#297
b100110100111110101010011111111 (
b0 N"
b11111111 Y"
b0 a"
#298
b100110100111110101010100000000 (
b11111111 N"
b0 Y"
b11111111 a"
#299
b100110100111110101011011111111 (
b0 N"
b11111111 Y"
b0 a"
#300
b100110100111110101011100000000 (
b11111111 N"
b0 Y"
b11111111 a"
#301
b100110100111110101100011111111 (
b0 N"
b11111111 Y"
b0 a"
#302
b100110100111110101100100000000 (
b11111111 N"
b0 Y"
b11111111 a"
#303
b100110100111110101101011111111 (
b0 N"
b11111111 Y"
b0 a"
#304
b100110100111110101101100000000 (
b11111111 N"
b0 Y"
b11111111 a"
#305
b100110100111110101110011111111 (
b0 N"
b11111111 Y"
b0 a"
#306
b100110100111110101110100000000 (
b11111111 N"
b0 Y"
b11111111 a"
#307
b100110100111110101111011111111 (
b0 N"
b11111111 Y"
b0 a"
#308
b100110100111110101111100000000 (
b11111111 N"
b0 Y"
b11111111 a"
#309
b100110100111110110000011111111 (
b0 N"
b11111111 Y"
b0 a"
#310
b100110100111110110000100000000 (
b11111111 N"
b0 Y"
b11111111 a"
#311
b100110100111110110001011111111 (
b0 N"
b11111111 Y"
b0 a"
#312
b100110100111110110001100000000 (
b11111111 N"
b0 Y"
b11111111 a"
#313
b100110100111110110010011111111 (
b0 N"
b11111111 Y"
b0 a"
#314
b100110100111110110010100000000 (
b11111111 N"
b0 Y"
b11111111 a"
#315
b100110100111110110011011111111 (
b0 N"
b11111111 Y"
b0 a"
#316
b100110100111110110011100000000 (
b11111111 N"
b0 Y"
b11111111 a"
#317
b100110100111110110100011111111 (
b0 N"
b11111111 Y"
b0 a"
#318
b100110100111110110100100000000 (
b11111111 N"
b0 Y"
b11111111 a"
#319
b100110100111110110101011111111 (
b0 N"
b11111111 Y"
b0 a"
#320
b100110100111110110101100000000 (
b11111111 N"
b0 Y"
b11111111 a"
#321
b100110100111110110110011111111 (
b0 N"
b11111111 Y"
b0 a"
#322
b100110100111110110110100000000 (
b11111111 N"
b0 Y"
b11111111 a"
#323
b100110100111110110111011111111 (
b0 N"
b11111111 Y"
b0 a"
#324
b100110100111110110111100000000 (
b11111111 N"
b0 Y"
b11111111 a"
#325
b100110100111110111000011111111 (
b0 N"
b11111111 Y"
b0 a"
#326
b100110100111110111000100000000 (
b11111111 N"
b0 Y"
b11111111 a"
#327
b100110100111110111001011111111 (
b0 N"
b11111111 Y"
b0 a"
#328
b100110100111110111001100000000 (
b11111111 N"
b0 Y"
b11111111 a"
#329
b100110100111110111010011111111 (
b0 N"
b11111111 Y"
b0 a"
#330
b100110100111110111010100000000 (
b11111111 N"
b0 Y"
b11111111 a"
#331
b100110100111110111011011111111 (
b0 N"
b11111111 Y"
b0 a"
#332
b100110100111110111011100000000 (
b11111111 N"
b0 Y"
b11111111 a"
#333
b100110100111110111100011111111 (
b0 N"
b11111111 Y"
b0 a"
#334
b100110100111110111100100000000 (
b11111111 N"
b0 Y"
b11111111 a"
#335
b100110100111110111101011111111 (
b0 N"
b11111111 Y"
b0 a"
#336
b100110100111110111101100000000 (
b11111111 N"
b0 Y"
b11111111 a"
#337
b100110100111110111110011111111 (
b0 N"
b11111111 Y"
b0 a"
#338
b100110100111110111110100000000 (
b11111111 N"
b0 Y"
b11111111 a"
#339
b100110100111110111111011111111 (
b0 N"
b11111111 Y"
b0 a"
#340
b100110100111110111111100000000 (
b11111111 N"
b0 Y"
b11111111 a"
#341
b100110100111111000000011111111 (
b0 N"
b11111111 Y"
b0 a"
#342
b100110100111111000000100000000 (
b11111111 N"
b0 Y"
b11111111 a"
#343
b100110100111111000001011111111 (
b0 N"
b11111111 Y"
b0 a"
#344
b100110100111111000001100000000 (
b11111111 N"
b0 Y"
b11111111 a"
#345
b100110100111111000010011111111 (
b0 N"
b11111111 Y"
b0 a"
#346
b100110100111111000010100000000 (
b11111111 N"
b0 Y"
b11111111 a"
#347
b100110100111111000011011111111 (
b0 N"
b11111111 Y"
b0 a"
#348
b100110100111111000011100000000 (
b11111111 N"
b0 Y"
b11111111 a"
#349
b100110100111111000100011111111 (
b0 N"
b11111111 Y"
b0 a"
#350
b100110100111111000100100000000 (
b11111111 N"
b0 Y"
b11111111 a"
#351
b100110100111111000101011111111 (
b0 N"
b11111111 Y"
b0 a"
#352
b100110100111111000101100000000 (
b11111111 N"
b0 Y"
b11111111 a"
#353
b100110100111111000110011111111 (
b0 N"
b11111111 Y"
b0 a"
#354
b100110100111111000110100000000 (
b11111111 N"
b0 Y"
b11111111 a"
#355
b100110100111111000111011111111 (
b0 N"
b11111111 Y"
b0 a"
#356
b100110100111111000111100000000 (
b11111111 N"
b0 Y"
b11111111 a"
#357
b100110100111111001000011111111 (
b0 N"
b11111111 Y"
b0 a"
#358
b100110100111111001000100000000 (
b11111111 N"
b0 Y"
b11111111 a"
#359
b100110100111111001001011111111 (
b0 N"
b11111111 Y"
b0 a"
