Firmware/vfat3_testing_firmware/.Xil/Vivado-14508-Shinsekai/hw_ila_data_1/zip_work/waveform.vcd
$date
        2017-May-08 09:52:34
$end
$version
        Vivado v2016.3 (64-bit)
$end
$timescale
        1ps
$end
$scope module dut $end
$var reg 1 " slaves/slave_vfat3/fifo_out_w_en $end
$var reg 1 # slaves/slave_vfat3/fifo_in_w_en $end
$var reg 1 $ slaves/slave_vfat3/fifo_out_r_en $end
$var reg 1 % slaves/slave_vfat3/fifo_in_r_en $end
$var reg 1 & slaves/slave_vfat3/fifo_out_valid $end
$var reg 1 ' slaves/slave_vfat3/fifo_in_valid $end
$var reg 32 ( slaves/slave_vfat3/fifo_out_data_in [31:0] $end
$var reg 32 H slaves/slave_vfat3/fifo_out_data_out [31:0] $end
$var reg 32 h slaves/slave_vfat3/fifo_in_data_in [31:0] $end
$var reg 32 *" slaves/slave_vfat3/fifo_in_data_out [31:0] $end
$var reg 1 J" slaves/slave_vfat3/fifo_out_empty $end
$var reg 1 K" slaves/slave_vfat3/fifo_in_empty $end
$var reg 1 L" slaves/slave_vfat3/fifo_out_full $end
$var reg 1 M" slaves/slave_vfat3/fifo_in_full $end
$var reg 8 N" slaves/slave_vfat3/ser_d_in [7:0] $end
$var reg 1 V" slaves/slave_vfat3/reset $end
$var reg 1 W" slaves/slave_vfat3/rst40 $end
$var reg 1 X" slaves/slave_vfat3/reset_fifo $end
$var reg 8 Y" slaves/slave_vfat3/data_bus_in [7:0] $end
$var reg 8 a" slaves/slave_vfat3/d_sync [7:0] $end
$var reg 1 i" _TRIGGER $end
$var reg 1 j" _WINDOW $end
$var reg 1 k" _GAP $end
$upscope $end
$enddefinitions $end
#0
$dumpvars
1"
0#
0$
0%
0&
0'
b11101111000001100110111100000000 (
b1100011100111000000000 H
b0 h
b11100 *"
0J"
1K"
1L"
0M"
b0 N"
0V"
0W"
0X"
b0 Y"
b0 a"
1i"
1j"
0k"
$end
#1
b11101111000001100111000000000000 (
b11111111 N"
#2
b11101111000001100111000100000000 (
b0 N"
#3
b11101111000001100111001000000000 (
b11111111 N"
#4
b11101111000001100111001100000000 (
b0 N"
#5
b11101111000001100111010000000000 (
b11111111 N"
#6
b11101111000001100111010100000000 (
b0 N"
#7
b11101111000001100111011000000000 (
b11111111 N"
#8
b11101111000001100111011100000000 (
b0 N"
#9
b11101111000001100111100000000000 (
b11111111 N"
#10
b11101111000001100111100100000000 (
b0 N"
#11
b11101111000001100111101000000000 (
b11111111 N"
#12
b11101111000001100111101100000000 (
b0 N"
#13
b11101111000001100111110000000000 (
b11111111 N"
#14
b11101111000001100111110100000000 (
b0 N"
#15
b11101111000001100111111000000000 (
b11111111 N"
#16
b11101111000001100111111100000000 (
b0 N"
#17
b11101111000001101000000000000000 (
b11111111 N"
#18
b11101111000001101000000100000000 (
b0 N"
#19
b11101111000001101000001000000000 (
b11111111 N"
#20
b11101111000001101000001100000000 (
b0 N"
#21
b11101111000001101000010000000000 (
b11111111 N"
#22
b11101111000001101000010100000000 (
b0 N"
#23
b11101111000001101000011000000000 (
b11111111 N"
#24
b11101111000001101000011100000000 (
b0 N"
#25
b11101111000001101000100000000000 (
b11111111 N"
#26
b11101111000001101000100100000000 (
b0 N"
#27
b11101111000001101000101000000000 (
b11111111 N"
#28
b11101111000001101000101100000000 (
b0 N"
#29
b11101111000001101000110000000000 (
b11111111 N"
#30
b11101111000001101000110100000000 (
b0 N"
#31
b11101111000001101000111000000000 (
b11111111 N"
#32
b11101111000001101000111100000000 (
b0 N"
#33
b11101111000001101001000000000000 (
b11111111 N"
#34
b11101111000001101001000100000000 (
b0 N"
#35
b11101111000001101001001000000000 (
b11111111 N"
#36
b11101111000001101001001100000000 (
b0 N"
#37
b11101111000001101001010000000000 (
b11111111 N"
#38
b11101111000001101001010100000000 (
b0 N"
#39
b11101111000001101001011000000000 (
b11111111 N"
#40
b11101111000001101001011100000000 (
b0 N"
#41
b11101111000001101001100000000000 (
b11111111 N"
#42
b11101111000001101001100100000000 (
b0 N"
#43
b11101111000001101001101000000000 (
b11111111 N"
#44
b11101111000001101001101100000000 (
b0 N"
#45
b11101111000001101001110000000000 (
b11111111 N"
#46
b11101111000001101001110100000000 (
b0 N"
#47
b11101111000001101001111000000000 (
b11111111 N"
#48
b11101111000001101001111100000000 (
b0 N"
#49
b11101111000001101010000000000000 (
b11111111 N"
#50
b11101111000001101010000100000000 (
b0 N"
#51
b11101111000001101010001000000000 (
b11111111 N"
#52
b11101111000001101010001100000000 (
b0 N"
#53
b11101111000001101010010000000000 (
b11111111 N"
#54
b11101111000001101010010100000000 (
b0 N"
#55
b11101111000001101010011000000000 (
b11111111 N"
#56
b11101111000001101010011100000000 (
b0 N"
#57
b11101111000001101010100000000000 (
b11111111 N"
#58
b11101111000001101010100100000000 (
b0 N"
#59
b11101111000001101010101000000000 (
b11111111 N"
#60
b11101111000001101010101100000000 (
b0 N"
#61
b11101111000001101010110000000000 (
b11111111 N"
#62
b11101111000001101010110100000000 (
b0 N"
#63
b11101111000001101010111000000000 (
b11111111 N"
#64
b11101111000001101010111100000000 (
b0 N"
#65
b11101111000001101011000000000000 (
b11111111 N"
#66
b11101111000001101011000100000000 (
b0 N"
#67
b11101111000001101011001000000000 (
b11111111 N"
#68
b11101111000001101011001100000000 (
b0 N"
#69
b11101111000001101011010000000000 (
b11111111 N"
#70
b11101111000001101011010100000000 (
b0 N"
#71
b11101111000001101011011000000000 (
b11111111 N"
#72
b11101111000001101011011100000000 (
b0 N"
#73
b11101111000001101011100000000000 (
b11111111 N"
#74
b11101111000001101011100100000000 (
b0 N"
#75
b11101111000001101011101000000000 (
b11111111 N"
#76
b11101111000001101011101100000000 (
b0 N"
#77
b11101111000001101011110000000000 (
b11111111 N"
#78
b11101111000001101011110100000000 (
b0 N"
#79
b11101111000001101011111000000000 (
b11111111 N"
#80
b11101111000001101011111100000000 (
b0 N"
#81
b11101111000001101100000000000000 (
b11111111 N"
#82
b11101111000001101100000100000000 (
b0 N"
#83
b11101111000001101100001000000000 (
b11111111 N"
#84
b11101111000001101100001100000000 (
b0 N"
#85
b11101111000001101100010000000000 (
b11111111 N"
#86
b11101111000001101100010100000000 (
b0 N"
#87
b11101111000001101100011000000000 (
b11111111 N"
#88
b11101111000001101100011100000000 (
b0 N"
#89
b11101111000001101100100000000000 (
b11111111 N"
#90
b11101111000001101100100100000000 (
b0 N"
#91
b11101111000001101100101000000000 (
b11111111 N"
#92
b11101111000001101100101100000000 (
b0 N"
#93
b11101111000001101100110000000000 (
b11111111 N"
#94
b11101111000001101100110100000000 (
b0 N"
#95
b11101111000001101100111000000000 (
b11111111 N"
#96
b11101111000001101100111100000000 (
b0 N"
#97
b11101111000001101101000000000000 (
b11111111 N"
#98
b11101111000001101101000100000000 (
b0 N"
#99
b11101111000001101101001000000000 (
b11111111 N"
#100
b11101111000001101101001100000000 (
b0 N"
#101
b11101111000001101101010000000000 (
b11111111 N"
#102
b11101111000001101101010100000000 (
b0 N"
#103
b11101111000001101101011000000000 (
b11111111 N"
#104
b11101111000001101101011100000000 (
b0 N"
#105
b11101111000001101101100000000000 (
b11111111 N"
#106
b11101111000001101101100100000000 (
b0 N"
#107
b11101111000001101101101000000000 (
b11111111 N"
#108
b11101111000001101101101100000000 (
b0 N"
#109
b11101111000001101101110000000000 (
b11111111 N"
#110
b11101111000001101101110100000000 (
b0 N"
#111
b11101111000001101101111000000000 (
b11111111 N"
#112
b11101111000001101101111100000000 (
b0 N"
#113
b11101111000001101110000000000000 (
b11111111 N"
#114
b11101111000001101110000100000000 (
b0 N"
#115
b11101111000001101110001000000000 (
b11111111 N"
#116
b11101111000001101110001100000000 (
b0 N"
#117
b11101111000001101110010000000000 (
b11111111 N"
#118
b11101111000001101110010100000000 (
b0 N"
#119
b11101111000001101110011000000000 (
b11111111 N"
#120
b11101111000001101110011100000000 (
b0 N"
#121
b11101111000001101110100000000000 (
b11111111 N"
#122
b11101111000001101110100100000000 (
b0 N"
#123
b11101111000001101110101000000000 (
b11111111 N"
#124
b11101111000001101110101100000000 (
b0 N"
#125
b11101111000001101110110000000000 (
b11111111 N"
#126
b11101111000001101110110100000000 (
b0 N"
#127
b11101111000001101110111000000000 (
b11111111 N"
#128
b11101111000001101110111100000000 (
b0 N"
#129
b11101111000001101111000000000000 (
b11111111 N"
#130
b11101111000001101111000100000000 (
b0 N"
#131
b11101111000001101111001000000000 (
b11111111 N"
#132
b11101111000001101111001100000000 (
b0 N"
#133
b11101111000001101111010000000000 (
b11111111 N"
#134
b11101111000001101111010100000000 (
b0 N"
#135
b11101111000001101111011000000000 (
b11111111 N"
#136
b11101111000001101111011100000000 (
b0 N"
#137
b11101111000001101111100000000000 (
b11111111 N"
#138
b11101111000001101111100100000000 (
b0 N"
#139
b11101111000001101111101000000000 (
b11111111 N"
#140
b11101111000001101111101100000000 (
b0 N"
#141
b11101111000001101111110000000000 (
b11111111 N"
#142
b11101111000001101111110100000000 (
b0 N"
#143
b11101111000001101111111000000000 (
b11111111 N"
#144
b11101111000001101111111100000000 (
b0 N"
#145
b11101111000001110000000000000000 (
b11111111 N"
#146
b11101111000001110000000100000000 (
b0 N"
#147
b11101111000001110000001000000000 (
b11111111 N"
#148
b11101111000001110000001100000000 (
b0 N"
#149
b11101111000001110000010000000000 (
b11111111 N"
#150
b11101111000001110000010100000000 (
b0 N"
#151
b11101111000001110000011000000000 (
b11111111 N"
#152
b11101111000001110000011100000000 (
b0 N"
#153
b11101111000001110000100000000000 (
b11111111 N"
#154
b11101111000001110000100100000000 (
b0 N"
#155
b11101111000001110000101000000000 (
b11111111 N"
#156
b11101111000001110000101100000000 (
b0 N"
#157
b11101111000001110000110000000000 (
b11111111 N"
#158
b11101111000001110000110100000000 (
b0 N"
#159
b11101111000001110000111000000000 (
b11111111 N"
#160
b11101111000001110000111100000000 (
b0 N"
#161
b11101111000001110001000000000000 (
b11111111 N"
#162
b11101111000001110001000100000000 (
b0 N"
#163
b11101111000001110001001000000000 (
b11111111 N"
#164
b11101111000001110001001100000000 (
b0 N"
#165
b11101111000001110001010000000000 (
b11111111 N"
#166
b11101111000001110001010100000000 (
b0 N"
#167
b11101111000001110001011000000000 (
b11111111 N"
#168
b11101111000001110001011100000000 (
b0 N"
#169
b11101111000001110001100000000000 (
b11111111 N"
#170
b11101111000001110001100100000000 (
b0 N"
#171
b11101111000001110001101000000000 (
b11111111 N"
#172
b11101111000001110001101100000000 (
b0 N"
#173
b11101111000001110001110000000000 (
b11111111 N"
#174
b11101111000001110001110100000000 (
b0 N"
#175
b11101111000001110001111000000000 (
b11111111 N"
#176
b11101111000001110001111100000000 (
b0 N"
#177
b11101111000001110010000000000000 (
b11111111 N"
#178
b11101111000001110010000100000000 (
b0 N"
#179
b11101111000001110010001000000000 (
b11111111 N"
#180
b11101111000001110010001100000000 (
b0 N"
#181
b11101111000001110010010000000000 (
b11111111 N"
#182
b11101111000001110010010100000000 (
b0 N"
#183
b11101111000001110010011000000000 (
b11111111 N"
#184
b11101111000001110010011100000000 (
b0 N"
#185
b11101111000001110010100000000000 (
b11111111 N"
#186
b11101111000001110010100100000000 (
b0 N"
#187
b11101111000001110010101000000000 (
b11111111 N"
#188
b11101111000001110010101100000000 (
b0 N"
#189
b11101111000001110010110000000000 (
b11111111 N"
#190
b11101111000001110010110100000000 (
b0 N"
#191
b11101111000001110010111000000000 (
b11111111 N"
#192
b11101111000001110010111100000000 (
b0 N"
#193
b11101111000001110011000000000000 (
b11111111 N"
#194
b11101111000001110011000100000000 (
b0 N"
#195
b11101111000001110011001000000000 (
b11111111 N"
#196
b11101111000001110011001100000000 (
b0 N"
#197
b11101111000001110011010000000000 (
b11111111 N"
#198
b11101111000001110011010100000000 (
b0 N"
#199
b11101111000001110011011000000000 (
b11111111 N"
#200
b11101111000001110011011100000000 (
b0 N"
#201
b11101111000001110011100000000000 (
b11111111 N"
#202
b11101111000001110011100100000000 (
b0 N"
#203
b11101111000001110011101000000000 (
b11111111 N"
#204
b11101111000001110011101100000000 (
b0 N"
#205
b11101111000001110011110000000000 (
b11111111 N"
#206
b11101111000001110011110100000000 (
b0 N"
#207
b11101111000001110011111000000000 (
b11111111 N"
#208
b11101111000001110011111100000000 (
b0 N"
#209
b11101111000001110100000000000000 (
b11111111 N"
#210
b11101111000001110100000100000000 (
b0 N"
#211
b11101111000001110100001000000000 (
b11111111 N"
#212
b11101111000001110100001100000000 (
b0 N"
#213
b11101111000001110100010000000000 (
b11111111 N"
#214
b11101111000001110100010100000000 (
b0 N"
#215
b11101111000001110100011000000000 (
b11111111 N"
#216
b11101111000001110100011100000000 (
b0 N"
#217
b11101111000001110100100000000000 (
b11111111 N"
#218
b11101111000001110100100100000000 (
b0 N"
#219
b11101111000001110100101000000000 (
b11111111 N"
#220
b11101111000001110100101100000000 (
b0 N"
#221
b11101111000001110100110000000000 (
b11111111 N"
#222
b11101111000001110100110100000000 (
b0 N"
#223
b11101111000001110100111000000000 (
b11111111 N"
#224
b11101111000001110100111100000000 (
b0 N"
#225
b11101111000001110101000000000000 (
b11111111 N"
#226
b11101111000001110101000100000000 (
b0 N"
#227
b11101111000001110101001000000000 (
b11111111 N"
#228
b11101111000001110101001100000000 (
b0 N"
#229
b11101111000001110101010000000000 (
b11111111 N"
#230
b11101111000001110101010100000000 (
b0 N"
#231
b11101111000001110101011000000000 (
b11111111 N"
#232
b11101111000001110101011100000000 (
b0 N"
#233
b11101111000001110101100000000000 (
b11111111 N"
#234
b11101111000001110101100100000000 (
b0 N"
#235
b11101111000001110101101000000000 (
b11111111 N"
#236
b11101111000001110101101100000000 (
b0 N"
#237
b11101111000001110101110000000000 (
b11111111 N"
#238
b11101111000001110101110100000000 (
b0 N"
#239
b11101111000001110101111000000000 (
b11111111 N"
#240
b11101111000001110101111100000000 (
b0 N"
#241
b11101111000001110110000000000000 (
b11111111 N"
#242
b11101111000001110110000100000000 (
b0 N"
#243
b11101111000001110110001000000000 (
b11111111 N"
#244
b11101111000001110110001100000000 (
b0 N"
#245
b11101111000001110110010000000000 (
b11111111 N"
#246
b11101111000001110110010100000000 (
b0 N"
#247
b11101111000001110110011000000000 (
b11111111 N"
#248
b11101111000001110110011100000000 (
b0 N"
#249
b11101111000001110110100000000000 (
b11111111 N"
#250
b11101111000001110110100100000000 (
b0 N"
#251
b11101111000001110110101000000000 (
b11111111 N"
#252
b11101111000001110110101100000000 (
b0 N"
#253
b11101111000001110110110000000000 (
b11111111 N"
#254
b11101111000001110110110100000000 (
b0 N"
#255
b11101111000001110110111000000000 (
b11111111 N"
#256
b11101111000001110110111100000000 (
b0 N"
#257
b11101111000001110111000000000000 (
b11111111 N"
#258
b11101111000001110111000100000000 (
b0 N"
#259
b11101111000001110111001000000000 (
b11111111 N"
#260
b11101111000001110111001100000000 (
b0 N"
#261
b11101111000001110111010000000000 (
b11111111 N"
#262
b11101111000001110111010100000000 (
b0 N"
#263
b11101111000001110111011000000000 (
b11111111 N"
#264
b11101111000001110111011100000000 (
b0 N"
#265
b11101111000001110111100000000000 (
b11111111 N"
#266
b11101111000001110111100100000000 (
b0 N"
#267
b11101111000001110111101000000000 (
b11111111 N"
#268
b11101111000001110111101100000000 (
b0 N"
#269
b11101111000001110111110000000000 (
b11111111 N"
#270
b11101111000001110111110100000000 (
b0 N"
#271
b11101111000001110111111000000000 (
b11111111 N"
#272
b11101111000001110111111100000000 (
b0 N"
#273
b11101111000001111000000000000000 (
b11111111 N"
#274
b11101111000001111000000100000000 (
b0 N"
#275
b11101111000001111000001000000000 (
b11111111 N"
#276
b11101111000001111000001100000000 (
b0 N"
#277
b11101111000001111000010000000000 (
b11111111 N"
#278
b11101111000001111000010100000000 (
b0 N"
#279
b11101111000001111000011000000000 (
b11111111 N"
#280
b11101111000001111000011100000000 (
b0 N"
#281
b11101111000001111000100000000000 (
b11111111 N"
#282
b11101111000001111000100100000000 (
b0 N"
#283
b11101111000001111000101000000000 (
b11111111 N"
#284
b11101111000001111000101100000000 (
b0 N"
#285
b11101111000001111000110000000000 (
b11111111 N"
#286
b11101111000001111000110100000000 (
b0 N"
#287
b11101111000001111000111000000000 (
b11111111 N"
#288
b11101111000001111000111100000000 (
b0 N"
#289
b11101111000001111001000000000000 (
b11111111 N"
#290
b11101111000001111001000100000000 (
b0 N"
#291
b11101111000001111001001000000000 (
b11111111 N"
#292
b11101111000001111001001100000000 (
b0 N"
#293
b11101111000001111001010000000000 (
b11111111 N"
#294
b11101111000001111001010100000000 (
b0 N"
#295
b11101111000001111001011000000000 (
b11111111 N"
#296
b11101111000001111001011100000000 (
b0 N"
#297
b11101111000001111001100000000000 (
b11111111 N"
#298
b11101111000001111001100100000000 (
b0 N"
#299
b11101111000001111001101000000000 (
b11111111 N"
#300
b11101111000001111001101100000000 (
b0 N"
#301
b11101111000001111001110000000000 (
b11111111 N"
#302
b11101111000001111001110100000000 (
b0 N"
#303
b11101111000001111001111000000000 (
b11111111 N"
#304
b11101111000001111001111100000000 (
b0 N"
#305
b11101111000001111010000000000000 (
b11111111 N"
#306
b11101111000001111010000100000000 (
b0 N"
#307
b11101111000001111010001000000000 (
b11111111 N"
#308
b11101111000001111010001100000000 (
b0 N"
#309
b11101111000001111010010000000000 (
b11111111 N"
#310
b11101111000001111010010100000000 (
b0 N"
#311
b11101111000001111010011000000000 (
b11111111 N"
#312
b11101111000001111010011100000000 (
b0 N"
#313
b11101111000001111010100000000000 (
b11111111 N"
#314
b11101111000001111010100100000000 (
b0 N"
#315
b11101111000001111010101000000000 (
b11111111 N"
#316
b11101111000001111010101100000000 (
b0 N"
#317
b11101111000001111010110000000000 (
b11111111 N"
#318
b11101111000001111010110100000000 (
b0 N"
#319
b11101111000001111010111000000000 (
b11111111 N"
#320
b11101111000001111010111100000000 (
b0 N"
#321
b11101111000001111011000000000000 (
b11111111 N"
#322
b11101111000001111011000100000000 (
b0 N"
#323
b11101111000001111011001000000000 (
b11111111 N"
#324
b11101111000001111011001100000000 (
b0 N"
#325
b11101111000001111011010000000000 (
b11111111 N"
#326
b11101111000001111011010100000000 (
b0 N"
#327
b11101111000001111011011000000000 (
b11111111 N"
#328
b11101111000001111011011100000000 (
b0 N"
#329
b11101111000001111011100000000000 (
b11111111 N"
#330
b11101111000001111011100100000000 (
b0 N"
#331
b11101111000001111011101000000000 (
b11111111 N"
#332
b11101111000001111011101100000000 (
b0 N"
#333
b11101111000001111011110000000000 (
b11111111 N"
#334
b11101111000001111011110100000000 (
b0 N"
#335
b11101111000001111011111000000000 (
b11111111 N"
#336
b11101111000001111011111100000000 (
b0 N"
#337
b11101111000001111100000000000000 (
b11111111 N"
#338
b11101111000001111100000100000000 (
b0 N"
#339
b11101111000001111100001000000000 (
b11111111 N"
#340
b11101111000001111100001100000000 (
b0 N"
#341
b11101111000001111100010000000000 (
b11111111 N"
#342
b11101111000001111100010100000000 (
b0 N"
#343
b11101111000001111100011000000000 (
b11111111 N"
#344
b11101111000001111100011100000000 (
b0 N"
#345
b11101111000001111100100000000000 (
b11111111 N"
#346
b11101111000001111100100100000000 (
b0 N"
#347
b11101111000001111100101000000000 (
b11111111 N"
#348
b11101111000001111100101100000000 (
b0 N"
#349
b11101111000001111100110000000000 (
b11111111 N"
#350
b11101111000001111100110100000000 (
b0 N"
#351
b11101111000001111100111000000000 (
b11111111 N"
#352
b11101111000001111100111100000000 (
b0 N"
#353
b11101111000001111101000000000000 (
b11111111 N"
#354
b11101111000001111101000100000000 (
b0 N"
#355
b11101111000001111101001000000000 (
b11111111 N"
#356
b11101111000001111101001100000000 (
b0 N"
#357
b11101111000001111101010000000000 (
b11111111 N"
#358
b11101111000001111101010100000000 (
b0 N"
#359
b11101111000001111101011000000000 (
b11111111 N"
#360
b11101111000001111101011100000000 (
b0 N"
#361
b11101111000001111101100000000000 (
b11111111 N"
#362
b11101111000001111101100100000000 (
b0 N"
#363
b11101111000001111101101000000000 (
b11111111 N"
#364
b11101111000001111101101100000000 (
b0 N"
#365
b11101111000001111101110000000000 (
b11111111 N"
#366
b11101111000001111101110100000000 (
b0 N"
#367
b11101111000001111101111000000000 (
b11111111 N"
#368
b11101111000001111101111100000000 (
b0 N"
#369
b11101111000001111110000000000000 (
b11111111 N"
#370
b11101111000001111110000100000000 (
b0 N"
#371
b11101111000001111110001000000000 (
b11111111 N"
#372
b11101111000001111110001100000000 (
b0 N"
#373
b11101111000001111110010000000000 (
b11111111 N"
#374
b11101111000001111110010100000000 (
b0 N"
#375
b11101111000001111110011000000000 (
b11111111 N"
#376
b11101111000001111110011100000000 (
b0 N"
#377
b11101111000001111110100000000000 (
b11111111 N"
#378
b11101111000001111110100100000000 (
b0 N"
#379
b11101111000001111110101000000000 (
b11111111 N"
#380
b11101111000001111110101100000000 (
b0 N"
#381
b11101111000001111110110000000000 (
b11111111 N"
#382
b11101111000001111110110100000000 (
b0 N"
#383
b11101111000001111110111000000000 (
b11111111 N"
#384
b11101111000001111110111100000000 (
b0 N"
#385
b11101111000001111111000000000000 (
b11111111 N"
#386
b11101111000001111111000100000000 (
b0 N"
#387
b11101111000001111111001000000000 (
b11111111 N"
#388
b11101111000001111111001100000000 (
b0 N"
#389
b11101111000001111111010000000000 (
b11111111 N"
#390
b11101111000001111111010100000000 (
b0 N"
#391
b11101111000001111111011000000000 (
b11111111 N"
#392
b11101111000001111111011100000000 (
b0 N"
#393
b11101111000001111111100000000000 (
b11111111 N"
#394
b11101111000001111111100100000000 (
b0 N"
#395
b11101111000001111111101000000000 (
b11111111 N"
#396
b11101111000001111111101100000000 (
b0 N"
#397
b11101111000001111111110000000000 (
b11111111 N"
#398
b11101111000001111111110100000000 (
b0 N"
#399
b11101111000001111111111000000000 (
b11111111 N"
#400
b11101111000001111111111100000000 (
b0 N"
#401
b11101111000010000000000000000000 (
b11111111 N"
#402
b11101111000010000000000100000000 (
b0 N"
#403
b11101111000010000000001000000000 (
b11111111 N"
#404
b11101111000010000000001100000000 (
b0 N"
#405
b11101111000010000000010000000000 (
b11111111 N"
#406
b11101111000010000000010100000000 (
b0 N"
#407
b11101111000010000000011000000000 (
b11111111 N"
#408
b11101111000010000000011100000000 (
b0 N"
#409
b11101111000010000000100000000000 (
b11111111 N"
#410
b11101111000010000000100100000000 (
b0 N"
#411
b11101111000010000000101000000000 (
b11111111 N"
#412
b11101111000010000000101100000000 (
b0 N"
#413
b11101111000010000000110000000000 (
b11111111 N"
#414
b11101111000010000000110100000000 (
b0 N"
#415
b11101111000010000000111000000000 (
b11111111 N"
#416
b11101111000010000000111100000000 (
b0 N"
#417
b11101111000010000001000000000000 (
b11111111 N"
#418
b11101111000010000001000100000000 (
b0 N"
#419
b11101111000010000001001000000000 (
b11111111 N"
#420
b11101111000010000001001100000000 (
b0 N"
#421
b11101111000010000001010000000000 (
b11111111 N"
#422
b11101111000010000001010100000000 (
b0 N"
#423
b11101111000010000001011000000000 (
b11111111 N"
#424
b11101111000010000001011100000000 (
b0 N"
#425
b11101111000010000001100000000000 (
b11111111 N"
#426
b11101111000010000001100100000000 (
b0 N"
#427
b11101111000010000001101000000000 (
b11111111 N"
#428
b11101111000010000001101100000000 (
b0 N"
#429
b11101111000010000001110000000000 (
b11111111 N"
#430
b11101111000010000001110100000000 (
b0 N"
#431
b11101111000010000001111000000000 (
b11111111 N"
#432
b11101111000010000001111100000000 (
b0 N"
#433
b11101111000010000010000000000000 (
b11111111 N"
#434
b11101111000010000010000100000000 (
b0 N"
#435
b11101111000010000010001000000000 (
b11111111 N"
#436
b11101111000010000010001100000000 (
b0 N"
#437
b11101111000010000010010000000000 (
b11111111 N"
#438
b11101111000010000010010100000000 (
b0 N"
#439
b11101111000010000010011000000000 (
b11111111 N"
#440
b11101111000010000010011100000000 (
b0 N"
#441
b11101111000010000010100000000000 (
b11111111 N"
#442
b11101111000010000010100100000000 (
b0 N"
#443
b11101111000010000010101000000000 (
b11111111 N"
#444
b11101111000010000010101100000000 (
b0 N"
#445
b11101111000010000010110000000000 (
b11111111 N"
#446
b11101111000010000010110100000000 (
b0 N"
#447
b11101111000010000010111000000000 (
b11111111 N"
#448
b11101111000010000010111100000000 (
b0 N"
#449
b11101111000010000011000000000000 (
b11111111 N"
#450
b11101111000010000011000100000000 (
b0 N"
#451
b11101111000010000011001000000000 (
b11111111 N"
#452
b11101111000010000011001100000000 (
b0 N"
#453
b11101111000010000011010000000000 (
b11111111 N"
#454
b11101111000010000011010100000000 (
b0 N"
#455
b11101111000010000011011000000000 (
b11111111 N"
#456
b11101111000010000011011100000000 (
b0 N"
#457
b11101111000010000011100000000000 (
b11111111 N"
#458
b11101111000010000011100100000000 (
b0 N"
#459
b11101111000010000011101000000000 (
b11111111 N"
#460
b11101111000010000011101100000000 (
b0 N"
#461
b11101111000010000011110000000000 (
b11111111 N"
#462
b11101111000010000011110100000000 (
b0 N"
#463
b11101111000010000011111000000000 (
b11111111 N"
#464
b11101111000010000011111100000000 (
b0 N"
#465
b11101111000010000100000000000000 (
b11111111 N"
#466
b11101111000010000100000100000000 (
b0 N"
#467
b11101111000010000100001000000000 (
b11111111 N"
#468
b11101111000010000100001100000000 (
b0 N"
#469
b11101111000010000100010000000000 (
b11111111 N"
#470
b11101111000010000100010100000000 (
b0 N"
#471
b11101111000010000100011000000000 (
b11111111 N"
#472
b11101111000010000100011100000000 (
b0 N"
#473
b11101111000010000100100000000000 (
b11111111 N"
#474
b11101111000010000100100100000000 (
b0 N"
#475
b11101111000010000100101000000000 (
b11111111 N"
#476
b11101111000010000100101100000000 (
b0 N"
#477
b11101111000010000100110000000000 (
b11111111 N"
#478
b11101111000010000100110100000000 (
b0 N"
#479
b11101111000010000100111000000000 (
b11111111 N"
#480
b11101111000010000100111100000000 (
b0 N"
#481
b11101111000010000101000000000000 (
b11111111 N"
#482
b11101111000010000101000100000000 (
b0 N"
#483
b11101111000010000101001000000000 (
b11111111 N"
#484
b11101111000010000101001100000000 (
b0 N"
#485
b11101111000010000101010000000000 (
b11111111 N"
#486
b11101111000010000101010100000000 (
b0 N"
#487
b11101111000010000101011000000000 (
b11111111 N"
#488
b11101111000010000101011100000000 (
b0 N"
#489
b11101111000010000101100000000000 (
b11111111 N"
#490
b11101111000010000101100100000000 (
b0 N"
#491
b11101111000010000101101000000000 (
b11111111 N"
#492
b11101111000010000101101100000000 (
b0 N"
#493
b11101111000010000101110000000000 (
b11111111 N"
#494
b11101111000010000101110100000000 (
b0 N"
#495
b11101111000010000101111000000000 (
b11111111 N"
#496
b11101111000010000101111100000000 (
b0 N"
#497
b11101111000010000110000000000000 (
b11111111 N"
#498
b11101111000010000110000100000000 (
b0 N"
#499
b11101111000010000110001000000000 (
b11111111 N"
#500
b11101111000010000110001100000000 (
b0 N"
#501
b11101111000010000110010000000000 (
b11111111 N"
#502
b11101111000010000110010100000000 (
b0 N"
#503
b11101111000010000110011000000000 (
b11111111 N"
#504
b11101111000010000110011100000000 (
b0 N"
#505
b11101111000010000110100000000000 (
b11111111 N"
#506
b11101111000010000110100100000000 (
b0 N"
#507
b11101111000010000110101000000000 (
b11111111 N"
#508
b11101111000010000110101100000000 (
b0 N"
#509
b11101111000010000110110000000000 (
b11111111 N"
#510
b11101111000010000110110100000000 (
b0 N"
#511
b11101111000010000110111000000000 (
b11111111 N"
#512
b11101111000010000110111100000000 (
b0 N"
#513
b11101111000010000111000000000000 (
b11111111 N"
#514
b11101111000010000111000100000000 (
b0 N"
#515
b11101111000010000111001000000000 (
b11111111 N"
#516
b11101111000010000111001100000000 (
b0 N"
#517
b11101111000010000111010000000000 (
b11111111 N"
#518
b11101111000010000111010100000000 (
b0 N"
#519
b11101111000010000111011000000000 (
b11111111 N"
#520
b11101111000010000111011100000000 (
b0 N"
#521
b11101111000010000111100000000000 (
b11111111 N"
#522
b11101111000010000111100100000000 (
b0 N"
#523
b11101111000010000111101000000000 (
b11111111 N"
#524
b11101111000010000111101100000000 (
b0 N"
#525
b11101111000010000111110000000000 (
b11111111 N"
#526
b11101111000010000111110100000000 (
b0 N"
#527
b11101111000010000111111000000000 (
b11111111 N"
#528
b11101111000010000111111100000000 (
b0 N"
#529
b11101111000010001000000000000000 (
b11111111 N"
#530
b11101111000010001000000100000000 (
b0 N"
#531
b11101111000010001000001000000000 (
b11111111 N"
#532
b11101111000010001000001100000000 (
b0 N"
#533
b11101111000010001000010000000000 (
b11111111 N"
#534
b11101111000010001000010100000000 (
b0 N"
#535
b11101111000010001000011000000000 (
b11111111 N"
#536
b11101111000010001000011100000000 (
b0 N"
#537
b11101111000010001000100000000000 (
b11111111 N"
#538
b11101111000010001000100100000000 (
b0 N"
#539
b11101111000010001000101000000000 (
b11111111 N"
#540
b11101111000010001000101100000000 (
b0 N"
#541
b11101111000010001000110000000000 (
b11111111 N"
#542
b11101111000010001000110100000000 (
b0 N"
#543
b11101111000010001000111000000000 (
b11111111 N"
#544
b11101111000010001000111100000000 (
b0 N"
#545
b11101111000010001001000000000000 (
b11111111 N"
#546
b11101111000010001001000100000000 (
b0 N"
#547
b11101111000010001001001000000000 (
b11111111 N"
#548
b11101111000010001001001100000000 (
b0 N"
#549
b11101111000010001001010000000000 (
b11111111 N"
#550
b11101111000010001001010100000000 (
b0 N"
#551
b11101111000010001001011000000000 (
b11111111 N"
#552
b11101111000010001001011100000000 (
b0 N"
#553
b11101111000010001001100000000000 (
b11111111 N"
#554
b11101111000010001001100100000000 (
b0 N"
#555
b11101111000010001001101000000000 (
b11111111 N"
#556
b11101111000010001001101100000000 (
b0 N"
#557
b11101111000010001001110000000000 (
b11111111 N"
#558
b11101111000010001001110100000000 (
b0 N"
#559
b11101111000010001001111000000000 (
b11111111 N"
#560
b11101111000010001001111100000000 (
b0 N"
